{
	"events": [
		{
			"action": "join",
			"character": "character-1642730242.json",
			"event_id": "dialogic_002",
			"mirror": false,
			"portrait": "gruvi_thumb",
			"position": {
				"0": true,
				"1": false,
				"2": false,
				"3": false,
				"4": false
			}
		},
		{
			"character": "character-1642730242.json",
			"event_id": "dialogic_001",
			"portrait": "gruvi_thumb",
			"text": "Acho que não temos mais o que conversar, temos?"
		},
		{
			"event_id": "dialogic_022",
			"transition_duration": 1
		}
	],
	"metadata": {
		"dialogic-version": "1.3",
		"file": "timeline-1642732449.json",
		"name": "fim"
	}
}
