{
	"events": [
		{
			"action": "join",
			"character": "character-1642734786.json",
			"event_id": "dialogic_002",
			"mirror": false,
			"portrait": "",
			"position": {
				"0": true,
				"1": false,
				"2": false,
				"3": false,
				"4": false
			}
		},
		{
			"character": "character-1642734786.json",
			"event_id": "dialogic_010",
			"options": [

			],
			"portrait": "",
			"question": "Ok."
		},
		{
			"choice": "Recrutar",
			"condition": "",
			"definition": "",
			"event_id": "dialogic_011",
			"value": ""
		},
		{
			"definition": "1642815512-648",
			"event_id": "dialogic_014",
			"operation": "=",
			"random_upper_limit": 100,
			"set_random": false,
			"set_value": "0"
		},
		{
			"event_id": "dialogic_022",
			"transition_duration": 0
		},
		{
			"choice": "Sair",
			"condition": "",
			"definition": "",
			"event_id": "dialogic_011",
			"value": ""
		},
		{
			"definition": "1642815512-648",
			"event_id": "dialogic_014",
			"operation": "=",
			"random_upper_limit": 100,
			"set_random": false,
			"set_value": "1"
		},
		{
			"character": "character-1642734786.json",
			"event_id": "dialogic_001",
			"portrait": "",
			"text": "..."
		},
		{
			"event_id": "dialogic_022",
			"transition_duration": 1
		},
		{
			"event_id": "dialogic_013"
		}
	],
	"metadata": {
		"dialogic-version": "1.3",
		"file": "timeline-1642782274.json",
		"name": "opções"
	}
}
