{
	"events": [
		{
			"action": "join",
			"character": "character-1642728240.json",
			"event_id": "dialogic_002",
			"mirror": false,
			"portrait": "",
			"position": {
				"0": true,
				"1": false,
				"2": false,
				"3": false,
				"4": false
			}
		},
		{
			"character": "character-1642728240.json",
			"event_id": "dialogic_001",
			"portrait": "",
			"text": "Ei."
		},
		{
			"action": "join",
			"character": "character-1642733007.json",
			"event_id": "dialogic_002",
			"mirror": false,
			"portrait": "",
			"position": {
				"0": true,
				"1": false,
				"2": false,
				"3": false,
				"4": false
			}
		},
		{
			"character": "character-1642733007.json",
			"event_id": "dialogic_001",
			"portrait": "",
			"text": "Ei. Zhalan, prazer."
		},
		{
			"character": "character-1642728240.json",
			"event_id": "dialogic_001",
			"portrait": "",
			"text": "O que faz aqui?"
		},
		{
			"character": "character-1642733007.json",
			"event_id": "dialogic_001",
			"portrait": "",
			"text": "Me instalei aqui. Local calmo, longe de tudo. Evita problemas."
		},
		{
			"character": "character-1642728240.json",
			"event_id": "dialogic_001",
			"portrait": "",
			"text": "Que tipo de problemas?"
		},
		{
			"character": "character-1642733007.json",
			"event_id": "dialogic_001",
			"portrait": "",
			"text": "Ah, pensei que você já soubesse. Sou mercenário, é bem óbvio."
		},
		{
			"character": "character-1642728240.json",
			"event_id": "dialogic_001",
			"portrait": "",
			"text": "Mercenário?"
		},
		{
			"character": "character-1642733007.json",
			"event_id": "dialogic_001",
			"portrait": "",
			"text": "É. Mercenário. Vi que você teve uns problemas com roubo, provavelmente vai ir atrás né? Pelo preço certo posso te ajudar. Você tá em menor número, afinal."
		},
		{
			"character": "character-1642728240.json",
			"event_id": "dialogic_001",
			"portrait": "",
			"text": "E qual é o seu preço, Zhalan?"
		},
		{
			"character": "character-1642733007.json",
			"event_id": "dialogic_001",
			"portrait": "",
			"text": " São [color=#DAC623]500 moedas[/color]. Esse é o preço. Garanto que vale a pena."
		},
		{
			"character": "character-1642728240.json",
			"event_id": "dialogic_001",
			"portrait": "",
			"text": "O que?  [color=#DAC623]500 moedas[/color]?"
		},
		{
			"character": "character-1642733007.json",
			"event_id": "dialogic_001",
			"portrait": "",
			"text": "Isso mesmo. Você deve saber como as coisas são complicadas por aqui, não posso cobrar barato. Sinto muito.  [color=#DAC623]500 moedas[/color].  ou nada."
		},
		{
			"character": "character-1642728240.json",
			"event_id": "dialogic_001",
			"portrait": "",
			"text": "Não sei se posso pagar tudo isso..."
		},
		{
			"character": "character-1642733007.json",
			"event_id": "dialogic_001",
			"portrait": "",
			"text": "Tudo bem, não vou a lugar nenhum tão cedo. Quando quiser me contratar, venha até mim novamente."
		}
	],
	"metadata": {
		"dialogic-version": "1.3",
		"file": "timeline-1642733019.json",
		"name": "tl1"
	}
}
