{
	"events": [
		{
			"action": "join",
			"character": "character-1642734765.json",
			"event_id": "dialogic_002",
			"mirror": false,
			"portrait": "",
			"position": {
				"0": true,
				"1": false,
				"2": false,
				"3": false,
				"4": false
			}
		},
		{
			"character": "character-1642734765.json",
			"event_id": "dialogic_001",
			"portrait": "",
			"text": "A Lumen me impressiona, mas não o suficiente. Vai ter que fazer melhor que isso se quiser que eu me junte a você!"
		}
	],
	"metadata": {
		"dialogic-version": "1.3",
		"file": "timeline-1642783437.json",
		"name": "pendente"
	}
}
