{
	"events": [
		{
			"action": "join",
			"character": "character-1642734821.json",
			"event_id": "dialogic_002",
			"mirror": false,
			"portrait": "",
			"position": {
				"0": true,
				"1": false,
				"2": false,
				"3": false,
				"4": false
			}
		},
		{
			"character": "character-1642734821.json",
			"event_id": "dialogic_001",
			"portrait": "",
			"text": "É ISSO! SKYPELT ESTÁ MORTO! HAHAHAHAHA"
		},
		{
			"action": "join",
			"character": "character-1642728240.json",
			"event_id": "dialogic_002",
			"mirror": false,
			"portrait": "",
			"position": {
				"0": true,
				"1": false,
				"2": false,
				"3": false,
				"4": false
			}
		},
		{
			"character": "character-1642728240.json",
			"event_id": "dialogic_001",
			"portrait": "",
			"text": "Então... Deu certo?"
		},
		{
			"character": "character-1642734821.json",
			"event_id": "dialogic_001",
			"portrait": "",
			"text": "Mas é claro que deu!\nAgora não tem mais ninguém no meu caminho, em breve essa galáxia será minha! \nE não se preocupe, lembrarei de seus esforços. Sem você, eu levaria o dobro do tempo!\nAgora preciso voltar ao trabalho. Pegue sua recompensa, você merece. Te vejo pela galáxia!"
		},
		{
			"call_node": {
				"arguments": [
					"10"
				],
				"method_name": "complete_quest",
				"target_node_path": "QuestsManager"
			},
			"event_id": "dialogic_042"
		}
	],
	"metadata": {
		"dialogic-version": "1.3",
		"file": "timeline-1642780900.json",
		"name": "pos_missao2"
	}
}
