[gd_scene load_steps=3 format=2]

[ext_resource path="res://levels/internal_hangar/Arrow.tscn" type="PackedScene" id=1]
[ext_resource path="res://levels/internal_hangar/LumenSelector.gd" type="Script" id=2]

[node name="LumenSelector" type="Spatial"]
script = ExtResource( 2 )
area = NodePath("SelectorArea")
up_arrow = NodePath("UpArrow")
down_arrow = NodePath("DownArrow")

[node name="SelectorArea" type="Area" parent="."]

[node name="CollisionShape" type="CollisionShape" parent="SelectorArea"]

[node name="UpArrow" parent="." instance=ExtResource( 1 )]
transform = Transform( 1, 0, 0, 0, 1, 0, 0, 0, 1, 0, 1, 0 )
visible = false

[node name="DownArrow" parent="." instance=ExtResource( 1 )]
transform = Transform( 1, 0, 0, 0, 1, 0, 0, 0, 1, 0, -1, 0 )
visible = false
flip_v = true
