[gd_scene load_steps=3 format=2]

[ext_resource path="res://assets/textures/green_button00.png" type="Texture" id=1]
[ext_resource path="res://components/fighter_health_bar/FighterHealthBar.gd" type="Script" id=2]

[node name="Spatial" type="Sprite3D"]
billboard = 1
texture = ExtResource( 1 )
script = ExtResource( 2 )
