{
	"color": "#ff0076ff",
	"description": "",
	"display_name": "",
	"display_name_bool": false,
	"id": "character-1642734786.json",
	"mirror_portraits": false,
	"name": "VEZA",
	"nickname": "",
	"nickname_bool": false,
	"offset_x": 47,
	"offset_y": -222,
	"portraits": [
		{
			"name": "Default",
			"path": "res://assets/textures/characters/veza/veza_thumb.png"
		}
	],
	"scale": 10
}
