[gd_scene load_steps=3 format=2]

[sub_resource type="CapsuleMesh" id=1]
radius = 0.5
mid_height = 0.75

[sub_resource type="SphereMesh" id=2]
radius = 0.2
height = 0.4

[node name="Veza" type="Spatial"]

[node name="MeshInstance" type="MeshInstance" parent="."]
transform = Transform( 1, 0, 0, 0, -4.37114e-08, -1, 0, 1, -4.37114e-08, 0, 0.877, 0 )
mesh = SubResource( 1 )
skeleton = NodePath("../..")
material/0 = null

[node name="MeshInstance2" type="MeshInstance" parent="."]
transform = Transform( 1, 0, 0, 0, 1, 0, 0, 0, 1, 0, 1.33851, -0.441595 )
mesh = SubResource( 2 )
material/0 = null
