[gd_scene load_steps=10 format=2]

[ext_resource path="res://assets/models/lumen/Cor Principal.material" type="Material" id=1]
[ext_resource path="res://assets/models/lumen/Outros.material" type="Material" id=2]
[ext_resource path="res://assets/models/lumen/Cor Secundaria.material" type="Material" id=3]
[ext_resource path="res://assets/vfx/stylized_fire/stylized_fire.tscn" type="PackedScene" id=4]

[sub_resource type="ArrayMesh" id=1]
resource_name = "SideWeaponFrontB_Círculo001"
surfaces/0 = {
"aabb": AABB( -0.436101, -7.12397, -0.512472, 1.00288, 11.8264, 1.01701 ),
"array_data": PoolByteArray( 126, 204, 125, 62, 240, 121, 150, 64, 58, 23, 251, 62, 251, 0, 121, 63, 224, 57, 144, 57, 126, 204, 125, 62, 240, 121, 150, 64, 58, 23, 251, 62, 0, 126, 123, 63, 224, 57, 144, 57, 126, 204, 125, 62, 240, 121, 150, 64, 58, 23, 251, 62, 0, 126, 126, 92, 224, 57, 144, 57, 126, 204, 125, 62, 240, 121, 150, 64, 58, 23, 251, 62, 60, 0, 126, 93, 224, 57, 144, 57, 31, 137, 12, 63, 240, 121, 150, 64, 237, 162, 91, 62, 0, 126, 126, 94, 237, 57, 144, 57, 31, 137, 12, 63, 240, 121, 150, 64, 237, 162, 91, 62, 0, 126, 126, 126, 237, 57, 144, 57, 31, 137, 12, 63, 240, 121, 150, 64, 237, 162, 91, 62, 60, 0, 126, 93, 237, 57, 144, 57, 31, 137, 12, 63, 240, 121, 150, 64, 237, 162, 91, 62, 121, 0, 126, 2, 237, 57, 144, 57, 163, 24, 17, 63, 240, 121, 150, 64, 89, 47, 70, 190, 0, 126, 130, 29, 249, 57, 144, 57, 163, 24, 17, 63, 240, 121, 150, 64, 89, 47, 70, 190, 0, 126, 127, 123, 249, 57, 144, 57, 163, 24, 17, 63, 240, 121, 150, 64, 89, 47, 70, 190, 126, 196, 131, 30, 249, 57, 144, 57, 163, 24, 17, 63, 240, 121, 150, 64, 89, 47, 70, 190, 121, 0, 126, 2, 249, 57, 144, 57, 133, 235, 148, 62, 240, 121, 150, 64, 170, 67, 253, 190, 0, 126, 130, 49, 5, 58, 143, 57, 133, 235, 148, 62, 240, 121, 150, 64, 170, 67, 253, 190, 0, 126, 130, 28, 5, 58, 143, 57, 133, 235, 148, 62, 240, 121, 150, 64, 170, 67, 253, 190, 126, 135, 135, 58, 5, 58, 143, 57, 133, 235, 148, 62, 240, 121, 150, 64, 170, 67, 253, 190, 126, 196, 131, 30, 5, 58, 143, 57, 121, 246, 239, 189, 240, 121, 150, 64, 89, 49, 3, 191, 130, 190, 193, 66, 176, 57, 139, 57, 121, 246, 239, 189, 240, 121, 150, 64, 89, 49, 3, 191, 0, 126, 205, 63, 176, 57, 139, 57, 121, 246, 239, 189, 240, 121, 150, 64, 89, 49, 3, 191, 0, 126, 130, 49, 17, 58, 140, 57, 121, 246, 239, 189, 240, 121, 150, 64, 89, 49, 3, 191, 126, 135, 136, 57, 17, 58, 140, 57, 155, 41, 214, 190, 240, 121, 150, 64, 233, 57, 114, 190, 130, 251, 251, 64, 189, 57, 142, 57, 155, 41, 214, 190, 240, 121, 150, 64, 233, 57, 114, 190, 130, 190, 193, 66, 189, 57, 142, 57, 155, 41, 214, 190, 240, 121, 150, 64, 233, 57, 114, 190, 0, 126, 7, 63, 189, 57, 142, 57, 155, 41, 214, 190, 240, 121, 150, 64, 233, 57, 114, 190, 0, 126, 205, 63, 189, 57, 142, 57, 165, 72, 223, 190, 240, 121, 150, 64, 97, 152, 47, 62, 130, 251, 251, 64, 201, 57, 143, 57, 165, 72, 223, 190, 240, 121, 150, 64, 97, 152, 47, 62, 190, 0, 60, 63, 201, 57, 143, 57, 165, 72, 223, 190, 240, 121, 150, 64, 97, 152, 47, 62, 0, 126, 2, 63, 201, 57, 143, 57, 165, 72, 223, 190, 240, 121, 150, 64, 97, 152, 47, 62, 0, 126, 60, 63, 201, 57, 143, 57, 206, 5, 36, 190, 240, 121, 150, 64, 45, 248, 241, 62, 190, 0, 60, 63, 212, 57, 143, 57, 206, 5, 36, 190, 240, 121, 150, 64, 45, 248, 241, 62, 251, 0, 121, 63, 212, 57, 143, 57, 206, 5, 36, 190, 240, 121, 150, 64, 45, 248, 241, 62, 0, 126, 63, 63, 212, 57, 143, 57, 206, 5, 36, 190, 240, 121, 150, 64, 45, 248, 241, 62, 0, 126, 122, 63, 212, 57, 143, 57, 195, 76, 84, 62, 6, 41, 223, 192, 4, 200, 203, 62, 130, 190, 126, 32, 236, 57, 102, 54, 195, 76, 84, 62, 6, 41, 223, 192, 4, 200, 203, 62, 126, 135, 120, 62, 236, 57, 102, 54, 250, 151, 227, 62, 6, 41, 223, 192, 78, 255, 56, 62, 130, 251, 125, 2, 246, 57, 102, 54, 250, 151, 227, 62, 6, 41, 223, 192, 78, 255, 56, 62, 130, 190, 126, 32, 246, 57, 102, 54, 84, 199, 234, 62, 6, 41, 223, 192, 167, 32, 16, 190, 130, 251, 125, 2, 0, 58, 103, 54, 84, 199, 234, 62, 6, 41, 223, 192, 167, 32, 16, 190, 190, 0, 130, 30, 0, 58, 103, 54, 233, 253, 118, 62, 6, 41, 223, 192, 237, 129, 193, 190, 190, 0, 130, 30, 11, 58, 103, 54, 233, 253, 118, 62, 6, 41, 223, 192, 237, 129, 193, 190, 251, 0, 130, 60, 11, 58, 103, 54, 29, 68, 164, 189, 6, 41, 223, 192, 65, 177, 200, 190, 251, 0, 130, 60, 22, 58, 103, 54, 29, 68, 164, 189, 6, 41, 223, 192, 65, 177, 200, 190, 60, 0, 191, 62, 195, 57, 100, 54, 160, 130, 162, 190, 6, 41, 223, 192, 206, 209, 50, 190, 60, 0, 191, 62, 205, 57, 101, 54, 160, 130, 162, 190, 6, 41, 223, 192, 206, 209, 50, 190, 121, 0, 251, 62, 205, 57, 101, 54, 250, 177, 169, 190, 6, 41, 223, 192, 42, 78, 22, 62, 126, 196, 60, 62, 215, 57, 101, 54, 250, 177, 169, 190, 6, 41, 223, 192, 42, 78, 22, 62, 121, 0, 251, 62, 215, 57, 101, 54, 113, 166, 233, 189, 6, 41, 223, 192, 172, 152, 196, 62, 126, 135, 120, 62, 226, 57, 102, 54, 113, 166, 233, 189, 6, 41, 223, 192, 172, 152, 196, 62, 126, 196, 60, 62, 226, 57, 102, 54, 196, 76, 84, 62, 244, 121, 150, 64, 178, 140, 196, 62, 130, 190, 124, 94, 224, 57, 140, 57, 196, 76, 84, 62, 244, 121, 150, 64, 178, 140, 196, 62, 0, 126, 123, 63, 224, 57, 140, 57, 196, 76, 84, 62, 244, 121, 150, 64, 178, 140, 196, 62, 0, 126, 126, 92, 224, 57, 140, 57, 196, 76, 84, 62, 244, 121, 150, 64, 178, 140, 196, 62, 126, 135, 121, 63, 224, 57, 140, 57, 251, 151, 227, 62, 244, 121, 150, 64, 174, 136, 42, 62, 130, 251, 122, 2, 237, 57, 139, 57, 251, 151, 227, 62, 244, 121, 150, 64, 174, 136, 42, 62, 130, 190, 124, 94, 237, 57, 139, 57, 251, 151, 227, 62, 244, 121, 150, 64, 174, 136, 42, 62, 0, 126, 126, 93, 237, 57, 139, 57, 251, 151, 227, 62, 244, 121, 150, 64, 174, 136, 42, 62, 0, 126, 126, 126, 237, 57, 139, 57, 85, 199, 234, 62, 244, 121, 150, 64, 75, 151, 30, 190, 130, 251, 122, 2, 249, 57, 140, 57, 85, 199, 234, 62, 244, 121, 150, 64, 75, 151, 30, 190, 190, 0, 131, 96, 249, 57, 140, 57, 85, 199, 234, 62, 244, 121, 150, 64, 75, 151, 30, 190, 0, 126, 130, 29, 249, 57, 140, 57, 85, 199, 234, 62, 244, 121, 150, 64, 75, 151, 30, 190, 0, 126, 126, 124, 249, 57, 140, 57, 236, 253, 118, 62, 244, 121, 150, 64, 61, 189, 200, 190, 190, 0, 131, 96, 5, 58, 140, 57, 236, 253, 118, 62, 244, 121, 150, 64, 61, 189, 200, 190, 251, 0, 143, 72, 5, 58, 140, 57, 236, 253, 118, 62, 244, 121, 150, 64, 61, 189, 200, 190, 0, 126, 130, 49, 5, 58, 140, 57, 236, 253, 118, 62, 244, 121, 150, 64, 61, 189, 200, 190, 0, 126, 130, 28, 5, 58, 140, 57, 27, 68, 164, 189, 244, 121, 150, 64, 148, 236, 207, 190, 251, 0, 143, 72, 16, 58, 137, 57, 27, 68, 164, 189, 244, 121, 150, 64, 148, 236, 207, 190, 0, 126, 206, 63, 179, 57, 135, 57, 27, 68, 164, 189, 244, 121, 150, 64, 148, 236, 207, 190, 0, 126, 130, 49, 16, 58, 137, 57, 27, 68, 164, 189, 244, 121, 150, 64, 148, 236, 207, 190, 60, 0, 197, 56, 179, 57, 135, 57, 159, 130, 162, 190, 244, 121, 150, 64, 114, 72, 65, 190, 0, 126, 9, 63, 190, 57, 138, 57, 159, 130, 162, 190, 244, 121, 150, 64, 114, 72, 65, 190, 0, 126, 205, 63, 190, 57, 138, 57, 159, 130, 162, 190, 244, 121, 150, 64, 114, 72, 65, 190, 60, 0, 198, 56, 190, 57, 138, 57, 159, 130, 162, 190, 244, 121, 150, 64, 114, 72, 65, 190, 121, 0, 252, 58, 190, 57, 138, 57, 249, 177, 169, 190, 244, 121, 150, 64, 134, 215, 7, 62, 0, 126, 3, 63, 201, 57, 140, 57, 249, 177, 169, 190, 244, 121, 150, 64, 134, 215, 7, 62, 0, 126, 60, 63, 201, 57, 140, 57, 249, 177, 169, 190, 244, 121, 150, 64, 134, 215, 7, 62, 126, 196, 60, 63, 201, 57, 140, 57, 249, 177, 169, 190, 244, 121, 150, 64, 134, 215, 7, 62, 121, 0, 252, 58, 201, 57, 140, 57, 111, 166, 233, 189, 244, 121, 150, 64, 90, 93, 189, 62, 0, 126, 62, 63, 212, 57, 140, 57, 111, 166, 233, 189, 244, 121, 150, 64, 90, 93, 189, 62, 0, 126, 121, 63, 212, 57, 140, 57, 111, 166, 233, 189, 244, 121, 150, 64, 90, 93, 189, 62, 126, 135, 121, 63, 212, 57, 140, 57, 111, 166, 233, 189, 244, 121, 150, 64, 90, 93, 189, 62, 126, 196, 60, 63, 212, 57, 140, 57, 166, 72, 223, 190, 86, 74, 125, 192, 5, 15, 62, 62, 129, 1, 0, 81, 197, 57, 58, 59, 166, 72, 223, 190, 86, 74, 125, 192, 5, 15, 62, 62, 129, 5, 251, 64, 197, 57, 58, 59, 166, 72, 223, 190, 86, 74, 125, 192, 5, 15, 62, 62, 129, 6, 250, 64, 197, 57, 58, 59, 166, 72, 223, 190, 86, 74, 125, 192, 5, 15, 62, 62, 190, 0, 59, 64, 197, 57, 58, 59, 166, 72, 223, 190, 86, 74, 125, 192, 5, 15, 62, 62, 190, 0, 59, 64, 197, 57, 58, 59, 166, 72, 223, 190, 208, 156, 55, 64, 5, 15, 62, 62, 129, 1, 0, 47, 198, 57, 92, 58, 166, 72, 223, 190, 208, 156, 55, 64, 5, 15, 62, 62, 130, 251, 251, 63, 198, 57, 92, 58, 166, 72, 223, 190, 208, 156, 55, 64, 5, 15, 62, 62, 129, 6, 250, 63, 198, 57, 92, 58, 166, 72, 223, 190, 208, 156, 55, 64, 5, 15, 62, 62, 190, 0, 60, 63, 198, 57, 92, 58, 166, 72, 223, 190, 208, 156, 55, 64, 5, 15, 62, 62, 190, 0, 60, 63, 198, 57, 92, 58, 207, 5, 36, 190, 208, 156, 55, 64, 127, 51, 249, 62, 190, 0, 60, 63, 212, 57, 92, 58, 207, 5, 36, 190, 208, 156, 55, 64, 127, 51, 249, 62, 190, 0, 60, 63, 212, 57, 92, 58, 207, 5, 36, 190, 208, 156, 55, 64, 127, 51, 249, 62, 251, 0, 121, 63, 212, 57, 92, 58, 207, 5, 36, 190, 208, 156, 55, 64, 127, 51, 249, 62, 251, 0, 121, 63, 212, 57, 92, 58, 207, 5, 36, 190, 86, 74, 125, 192, 127, 51, 249, 62, 190, 0, 59, 64, 211, 57, 58, 59, 207, 5, 36, 190, 86, 74, 125, 192, 127, 51, 249, 62, 190, 0, 59, 64, 211, 57, 58, 59, 207, 5, 36, 190, 86, 74, 125, 192, 127, 51, 249, 62, 251, 0, 119, 64, 211, 57, 58, 59, 207, 5, 36, 190, 86, 74, 125, 192, 127, 51, 249, 62, 251, 0, 119, 64, 211, 57, 58, 59, 123, 246, 239, 189, 86, 74, 125, 192, 97, 39, 255, 190, 129, 66, 190, 63, 168, 57, 58, 59, 123, 246, 239, 189, 86, 74, 125, 192, 97, 39, 255, 190, 129, 66, 190, 63, 168, 57, 58, 59, 123, 246, 239, 189, 86, 74, 125, 192, 97, 39, 255, 190, 126, 121, 130, 66, 23, 58, 59, 59, 123, 246, 239, 189, 86, 74, 125, 192, 97, 39, 255, 190, 127, 121, 130, 66, 23, 58, 59, 59, 123, 246, 239, 189, 208, 156, 55, 64, 97, 39, 255, 190, 129, 66, 191, 64, 168, 57, 92, 58, 123, 246, 239, 189, 208, 156, 55, 64, 97, 39, 255, 190, 130, 190, 191, 63, 168, 57, 92, 58, 123, 246, 239, 189, 208, 156, 55, 64, 97, 39, 255, 190, 126, 135, 131, 60, 23, 58, 92, 58, 123, 246, 239, 189, 208, 156, 55, 64, 97, 39, 255, 190, 127, 121, 131, 60, 23, 58, 92, 58, 156, 41, 214, 190, 208, 156, 55, 64, 69, 195, 99, 190, 129, 1, 0, 81, 182, 57, 92, 58, 156, 41, 214, 190, 208, 156, 55, 64, 69, 195, 99, 190, 130, 251, 251, 63, 182, 57, 92, 58, 156, 41, 214, 190, 208, 156, 55, 64, 69, 195, 99, 190, 129, 6, 250, 64, 182, 57, 92, 58, 156, 41, 214, 190, 208, 156, 55, 64, 69, 195, 99, 190, 129, 66, 191, 64, 182, 57, 92, 58, 156, 41, 214, 190, 208, 156, 55, 64, 69, 195, 99, 190, 130, 190, 191, 64, 182, 57, 92, 58, 156, 41, 214, 190, 86, 74, 125, 192, 69, 195, 99, 190, 129, 1, 0, 46, 181, 57, 58, 59, 156, 41, 214, 190, 86, 74, 125, 192, 69, 195, 99, 190, 129, 5, 251, 64, 181, 57, 58, 59, 156, 41, 214, 190, 86, 74, 125, 192, 69, 195, 99, 190, 129, 6, 250, 63, 181, 57, 58, 59, 156, 41, 214, 190, 86, 74, 125, 192, 69, 195, 99, 190, 129, 66, 190, 63, 181, 57, 58, 59, 156, 41, 214, 190, 86, 74, 125, 192, 69, 195, 99, 190, 129, 66, 190, 63, 181, 57, 58, 59, 163, 24, 17, 63, 86, 74, 125, 192, 181, 184, 55, 190, 127, 60, 130, 96, 252, 57, 59, 59, 163, 24, 17, 63, 86, 74, 125, 192, 181, 184, 55, 190, 127, 60, 130, 96, 252, 57, 59, 59, 163, 24, 17, 63, 86, 74, 125, 192, 181, 184, 55, 190, 121, 0, 126, 124, 252, 57, 59, 59, 163, 24, 17, 63, 86, 74, 125, 192, 181, 184, 55, 190, 121, 0, 126, 124, 252, 57, 59, 59, 163, 24, 17, 63, 208, 156, 55, 64, 181, 184, 55, 190, 126, 196, 130, 30, 253, 57, 92, 58, 163, 24, 17, 63, 208, 156, 55, 64, 181, 184, 55, 190, 127, 60, 130, 30, 253, 57, 92, 58, 163, 24, 17, 63, 208, 156, 55, 64, 181, 184, 55, 190, 121, 0, 126, 2, 253, 57, 92, 58, 163, 24, 17, 63, 208, 156, 55, 64, 181, 184, 55, 190, 121, 0, 125, 2, 253, 57, 92, 58, 132, 235, 148, 62, 208, 156, 55, 64, 88, 8, 246, 190, 126, 135, 130, 60, 10, 58, 92, 58, 132, 235, 148, 62, 208, 156, 55, 64, 88, 8, 246, 190, 127, 121, 131, 60, 10, 58, 92, 58, 132, 235, 148, 62, 208, 156, 55, 64, 88, 8, 246, 190, 126, 196, 130, 30, 10, 58, 92, 58, 132, 235, 148, 62, 208, 156, 55, 64, 88, 8, 246, 190, 127, 60, 130, 30, 10, 58, 92, 58, 132, 235, 148, 62, 86, 74, 125, 192, 88, 8, 246, 190, 126, 121, 130, 66, 9, 58, 59, 59, 132, 235, 148, 62, 86, 74, 125, 192, 88, 8, 246, 190, 127, 121, 130, 66, 9, 58, 59, 59, 132, 235, 148, 62, 86, 74, 125, 192, 88, 8, 246, 190, 127, 60, 130, 96, 9, 58, 59, 59, 132, 235, 148, 62, 86, 74, 125, 192, 88, 8, 246, 190, 127, 60, 130, 96, 9, 58, 59, 59, 125, 204, 125, 62, 86, 74, 125, 192, 70, 41, 1, 63, 251, 0, 119, 64, 224, 57, 58, 59, 125, 204, 125, 62, 86, 74, 125, 192, 70, 41, 1, 63, 251, 0, 119, 64, 224, 57, 58, 59, 125, 204, 125, 62, 86, 74, 125, 192, 70, 41, 1, 63, 60, 0, 126, 94, 224, 57, 58, 59, 125, 204, 125, 62, 86, 74, 125, 192, 70, 41, 1, 63, 60, 0, 125, 94, 224, 57, 58, 59, 125, 204, 125, 62, 208, 156, 55, 64, 70, 41, 1, 63, 251, 0, 120, 63, 225, 57, 92, 58, 125, 204, 125, 62, 208, 156, 55, 64, 70, 41, 1, 63, 251, 0, 121, 63, 225, 57, 92, 58, 125, 204, 125, 62, 208, 156, 55, 64, 70, 41, 1, 63, 60, 0, 126, 33, 225, 57, 92, 58, 125, 204, 125, 62, 208, 156, 55, 64, 70, 41, 1, 63, 60, 0, 126, 32, 225, 57, 92, 58, 31, 137, 12, 63, 208, 156, 55, 64, 145, 25, 106, 62, 60, 0, 126, 33, 239, 57, 92, 58, 31, 137, 12, 63, 208, 156, 55, 64, 145, 25, 106, 62, 60, 0, 126, 32, 239, 57, 92, 58, 31, 137, 12, 63, 208, 156, 55, 64, 145, 25, 106, 62, 121, 0, 126, 2, 239, 57, 92, 58, 31, 137, 12, 63, 208, 156, 55, 64, 145, 25, 106, 62, 121, 0, 126, 2, 239, 57, 92, 58, 31, 137, 12, 63, 86, 74, 125, 192, 145, 25, 106, 62, 60, 0, 125, 94, 238, 57, 58, 59, 31, 137, 12, 63, 86, 74, 125, 192, 145, 25, 106, 62, 60, 0, 125, 94, 238, 57, 58, 59, 31, 137, 12, 63, 86, 74, 125, 192, 145, 25, 106, 62, 121, 0, 126, 124, 238, 57, 58, 59, 31, 137, 12, 63, 86, 74, 125, 192, 145, 25, 106, 62, 121, 0, 125, 124, 238, 57, 58, 59, 124, 253, 222, 190, 196, 218, 118, 192, 66, 192, 234, 61, 129, 1, 0, 82, 194, 57, 53, 59, 124, 253, 222, 190, 196, 218, 118, 192, 66, 192, 234, 61, 129, 6, 250, 64, 194, 57, 53, 59, 124, 253, 222, 190, 64, 45, 49, 64, 66, 192, 234, 61, 129, 1, 0, 47, 195, 57, 96, 58, 124, 253, 222, 190, 64, 45, 49, 64, 66, 192, 234, 61, 129, 6, 250, 63, 195, 57, 96, 58, 198, 116, 214, 190, 64, 45, 49, 64, 97, 20, 27, 190, 129, 1, 0, 81, 185, 57, 96, 58, 198, 116, 214, 190, 64, 45, 49, 64, 97, 20, 27, 190, 129, 6, 250, 64, 185, 57, 96, 58, 198, 116, 214, 190, 196, 218, 118, 192, 97, 20, 27, 190, 129, 1, 0, 46, 185, 57, 53, 59, 198, 116, 214, 190, 196, 218, 118, 192, 97, 20, 27, 190, 129, 6, 250, 63, 185, 57, 53, 59, 207, 5, 36, 190, 150, 247, 227, 192, 124, 51, 249, 62, 190, 0, 60, 63, 210, 57, 166, 59, 207, 5, 36, 190, 150, 247, 227, 192, 124, 51, 249, 62, 251, 0, 121, 63, 210, 57, 166, 59, 156, 41, 214, 190, 150, 247, 227, 192, 75, 195, 99, 190, 129, 5, 251, 63, 182, 57, 166, 59, 156, 41, 214, 190, 150, 247, 227, 192, 75, 195, 99, 190, 129, 66, 190, 63, 182, 57, 166, 59, 132, 235, 148, 62, 150, 247, 227, 192, 91, 8, 246, 190, 126, 121, 130, 60, 9, 58, 166, 59, 132, 235, 148, 62, 150, 247, 227, 192, 91, 8, 246, 190, 127, 60, 130, 30, 9, 58, 166, 59, 31, 137, 12, 63, 150, 247, 227, 192, 139, 25, 106, 62, 60, 0, 126, 33, 238, 57, 166, 59, 31, 137, 12, 63, 150, 247, 227, 192, 139, 25, 106, 62, 121, 0, 126, 2, 238, 57, 166, 59, 166, 72, 223, 190, 150, 247, 227, 192, 255, 14, 62, 62, 129, 5, 251, 63, 196, 57, 166, 59, 166, 72, 223, 190, 150, 247, 227, 192, 255, 14, 62, 62, 190, 0, 60, 63, 196, 57, 166, 59, 123, 246, 239, 189, 150, 247, 227, 192, 100, 39, 255, 190, 129, 66, 190, 63, 168, 57, 166, 59, 123, 246, 239, 189, 150, 247, 227, 192, 100, 39, 255, 190, 126, 121, 130, 60, 23, 58, 166, 59, 163, 24, 17, 63, 150, 247, 227, 192, 187, 184, 55, 190, 127, 60, 130, 30, 252, 57, 166, 59, 163, 24, 17, 63, 150, 247, 227, 192, 187, 184, 55, 190, 121, 0, 126, 2, 252, 57, 166, 59, 125, 204, 125, 62, 150, 247, 227, 192, 69, 41, 1, 63, 251, 0, 121, 63, 224, 57, 166, 59, 125, 204, 125, 62, 150, 247, 227, 192, 69, 41, 1, 63, 60, 0, 126, 33, 224, 57, 166, 59 ),
"array_index_data": PoolByteArray( 91, 0, 25, 0, 28, 0, 91, 0, 89, 0, 25, 0, 110, 0, 16, 0, 21, 0, 110, 0, 103, 0, 16, 0, 126, 0, 10, 0, 15, 0, 126, 0, 120, 0, 10, 0, 140, 0, 3, 0, 6, 0, 140, 0, 138, 0, 3, 0, 137, 0, 29, 0, 0, 0, 137, 0, 93, 0, 29, 0, 104, 0, 14, 0, 19, 0, 104, 0, 124, 0, 14, 0, 122, 0, 7, 0, 11, 0, 122, 0, 142, 0, 7, 0, 47, 0, 74, 0, 44, 0, 47, 0, 79, 0, 74, 0, 42, 0, 67, 0, 41, 0, 42, 0, 70, 0, 67, 0, 38, 0, 57, 0, 37, 0, 38, 0, 60, 0, 57, 0, 35, 0, 48, 0, 32, 0, 35, 0, 53, 0, 48, 0, 33, 0, 78, 0, 46, 0, 33, 0, 51, 0, 78, 0, 45, 0, 71, 0, 43, 0, 45, 0, 75, 0, 71, 0, 40, 0, 61, 0, 39, 0, 40, 0, 64, 0, 61, 0, 36, 0, 52, 0, 34, 0, 36, 0, 56, 0, 52, 0, 27, 0, 76, 0, 30, 0, 27, 0, 73, 0, 76, 0, 31, 0, 49, 0, 1, 0, 31, 0, 77, 0, 49, 0, 2, 0, 54, 0, 4, 0, 2, 0, 50, 0, 54, 0, 5, 0, 59, 0, 9, 0, 5, 0, 55, 0, 59, 0, 8, 0, 63, 0, 13, 0, 8, 0, 58, 0, 63, 0, 12, 0, 66, 0, 18, 0, 12, 0, 62, 0, 66, 0, 17, 0, 69, 0, 23, 0, 17, 0, 65, 0, 69, 0, 164, 0, 112, 0, 81, 0, 164, 0, 158, 0, 112, 0, 24, 0, 107, 0, 20, 0, 24, 0, 86, 0, 107, 0, 113, 0, 149, 0, 82, 0, 113, 0, 155, 0, 149, 0, 169, 0, 146, 0, 118, 0, 169, 0, 163, 0, 146, 0, 119, 0, 143, 0, 123, 0, 119, 0, 147, 0, 143, 0, 167, 0, 128, 0, 100, 0, 167, 0, 160, 0, 128, 0, 101, 0, 125, 0, 105, 0, 101, 0, 129, 0, 125, 0, 170, 0, 96, 0, 132, 0, 170, 0, 157, 0, 96, 0, 133, 0, 92, 0, 136, 0, 133, 0, 97, 0, 92, 0, 162, 0, 134, 0, 144, 0, 162, 0, 171, 0, 134, 0, 145, 0, 139, 0, 141, 0, 145, 0, 135, 0, 139, 0, 161, 0, 117, 0, 131, 0, 161, 0, 168, 0, 117, 0, 130, 0, 121, 0, 127, 0, 130, 0, 116, 0, 121, 0, 159, 0, 98, 0, 114, 0, 159, 0, 166, 0, 98, 0, 115, 0, 102, 0, 109, 0, 115, 0, 99, 0, 102, 0, 156, 0, 84, 0, 95, 0, 156, 0, 165, 0, 84, 0, 94, 0, 88, 0, 90, 0, 94, 0, 83, 0, 88, 0, 22, 0, 72, 0, 26, 0, 22, 0, 68, 0, 72, 0, 106, 0, 154, 0, 111, 0, 106, 0, 152, 0, 154, 0, 80, 0, 150, 0, 85, 0, 80, 0, 148, 0, 150, 0, 87, 0, 153, 0, 108, 0, 87, 0, 151, 0, 153, 0 ),
"blend_shape_data": [  ],
"format": 2194711,
"index_count": 258,
"material": ExtResource( 1 ),
"primitive": 4,
"skeleton_aabb": [  ],
"vertex_count": 172
}
surfaces/1 = {
"aabb": AABB( -0.534806, -10.838, -0.597052, 1.20029, 13.6063, 1.20029 ),
"array_data": PoolByteArray( 125, 204, 125, 62, 95, 140, 44, 193, 70, 41, 1, 63, 132, 189, 252, 126, 50, 56, 1, 47, 125, 204, 125, 62, 95, 140, 44, 193, 70, 41, 1, 63, 123, 135, 249, 125, 50, 56, 1, 47, 31, 137, 12, 63, 95, 140, 44, 193, 145, 25, 106, 62, 133, 248, 248, 125, 51, 56, 43, 46, 31, 137, 12, 63, 95, 140, 44, 193, 145, 25, 106, 62, 132, 189, 252, 126, 51, 56, 43, 46, 163, 24, 17, 63, 95, 140, 44, 193, 181, 184, 55, 190, 133, 248, 248, 125, 54, 56, 81, 45, 163, 24, 17, 63, 95, 140, 44, 193, 181, 184, 55, 190, 192, 254, 243, 122, 54, 56, 81, 45, 132, 235, 148, 62, 95, 140, 44, 193, 88, 8, 246, 190, 192, 254, 243, 122, 59, 56, 125, 44, 132, 235, 148, 62, 95, 140, 44, 193, 88, 8, 246, 190, 251, 253, 241, 118, 59, 56, 125, 44, 123, 246, 239, 189, 95, 140, 44, 193, 97, 39, 255, 190, 251, 253, 241, 118, 69, 56, 145, 43, 123, 246, 239, 189, 95, 140, 44, 193, 97, 39, 255, 190, 59, 254, 21, 120, 69, 56, 18, 49, 156, 41, 214, 190, 95, 140, 44, 193, 69, 195, 99, 190, 59, 254, 21, 120, 58, 56, 184, 48, 156, 41, 214, 190, 95, 140, 44, 193, 69, 195, 99, 190, 118, 253, 14, 125, 58, 56, 184, 48, 166, 72, 223, 190, 95, 140, 44, 193, 5, 15, 62, 62, 124, 195, 246, 125, 53, 56, 83, 48, 166, 72, 223, 190, 95, 140, 44, 193, 5, 15, 62, 62, 118, 253, 14, 125, 53, 56, 83, 48, 207, 5, 36, 190, 95, 140, 44, 193, 127, 51, 249, 62, 123, 135, 249, 125, 51, 56, 213, 47, 207, 5, 36, 190, 95, 140, 44, 193, 127, 51, 249, 62, 124, 195, 246, 125, 51, 56, 213, 47, 195, 76, 84, 62, 6, 41, 223, 192, 4, 200, 203, 62, 132, 189, 252, 126, 31, 57, 245, 46, 195, 76, 84, 62, 6, 41, 223, 192, 4, 200, 203, 62, 123, 135, 251, 125, 31, 57, 245, 46, 250, 151, 227, 62, 6, 41, 223, 192, 78, 255, 56, 62, 133, 248, 245, 125, 31, 57, 105, 46, 250, 151, 227, 62, 6, 41, 223, 192, 78, 255, 56, 62, 132, 189, 252, 126, 31, 57, 105, 46, 84, 199, 234, 62, 6, 41, 223, 192, 167, 32, 16, 190, 133, 248, 245, 125, 32, 57, 221, 45, 84, 199, 234, 62, 6, 41, 223, 192, 167, 32, 16, 190, 192, 254, 238, 121, 32, 57, 221, 45, 233, 253, 118, 62, 6, 41, 223, 192, 237, 129, 193, 190, 192, 254, 238, 121, 34, 57, 82, 45, 233, 253, 118, 62, 6, 41, 223, 192, 237, 129, 193, 190, 251, 253, 243, 118, 34, 57, 82, 45, 29, 68, 164, 189, 6, 41, 223, 192, 65, 177, 200, 190, 251, 253, 243, 118, 36, 57, 186, 44, 29, 68, 164, 189, 6, 41, 223, 192, 65, 177, 200, 190, 59, 254, 21, 120, 36, 57, 145, 48, 160, 130, 162, 190, 6, 41, 223, 192, 206, 209, 50, 190, 59, 254, 21, 120, 34, 57, 76, 48, 160, 130, 162, 190, 6, 41, 223, 192, 206, 209, 50, 190, 118, 253, 15, 125, 34, 57, 76, 48, 250, 177, 169, 190, 6, 41, 223, 192, 42, 78, 22, 62, 124, 195, 246, 125, 33, 57, 6, 48, 250, 177, 169, 190, 6, 41, 223, 192, 42, 78, 22, 62, 118, 253, 15, 125, 33, 57, 6, 48, 113, 166, 233, 189, 6, 41, 223, 192, 172, 152, 196, 62, 123, 135, 251, 125, 32, 57, 129, 47, 113, 166, 233, 189, 6, 41, 223, 192, 172, 152, 196, 62, 124, 195, 246, 125, 32, 57, 129, 47, 124, 253, 222, 190, 196, 218, 118, 192, 66, 192, 234, 61, 127, 127, 48, 24, 144, 54, 36, 46, 124, 253, 222, 190, 196, 218, 118, 192, 66, 192, 234, 61, 0, 127, 127, 120, 144, 54, 36, 46, 124, 253, 222, 190, 64, 45, 49, 64, 66, 192, 234, 61, 0, 129, 127, 124, 143, 54, 43, 52, 124, 253, 222, 190, 64, 45, 49, 64, 66, 192, 234, 61, 127, 127, 47, 103, 143, 54, 43, 52, 198, 116, 214, 190, 64, 45, 49, 64, 97, 20, 27, 190, 0, 129, 127, 120, 204, 54, 45, 52, 198, 116, 214, 190, 64, 45, 49, 64, 97, 20, 27, 190, 0, 0, 218, 19, 204, 54, 45, 52, 198, 116, 214, 190, 196, 218, 118, 192, 97, 20, 27, 190, 0, 0, 217, 107, 204, 54, 28, 46, 198, 116, 214, 190, 196, 218, 118, 192, 97, 20, 27, 190, 0, 127, 127, 125, 204, 54, 28, 46, 104, 88, 183, 190, 196, 218, 118, 192, 66, 192, 234, 61, 129, 7, 249, 63, 70, 55, 105, 52, 104, 88, 183, 190, 196, 218, 118, 192, 66, 192, 234, 61, 127, 127, 47, 23, 155, 54, 86, 46, 104, 88, 183, 190, 196, 218, 118, 192, 66, 192, 234, 61, 0, 127, 127, 121, 155, 54, 86, 46, 104, 88, 183, 190, 64, 45, 49, 64, 66, 192, 234, 61, 129, 7, 249, 63, 70, 55, 31, 45, 104, 88, 183, 190, 64, 45, 49, 64, 66, 192, 234, 61, 0, 129, 127, 125, 158, 54, 30, 52, 104, 88, 183, 190, 64, 45, 49, 64, 66, 192, 234, 61, 127, 127, 48, 102, 158, 54, 30, 52, 178, 207, 174, 190, 64, 45, 49, 64, 97, 20, 27, 190, 129, 7, 249, 63, 38, 55, 31, 45, 178, 207, 174, 190, 64, 45, 49, 64, 97, 20, 27, 190, 0, 129, 127, 121, 192, 54, 28, 52, 178, 207, 174, 190, 64, 45, 49, 64, 97, 20, 27, 190, 0, 0, 218, 19, 192, 54, 28, 52, 178, 207, 174, 190, 196, 218, 118, 192, 97, 20, 27, 190, 129, 7, 249, 63, 38, 55, 105, 52, 178, 207, 174, 190, 196, 218, 118, 192, 97, 20, 27, 190, 0, 0, 217, 107, 189, 54, 99, 46, 178, 207, 174, 190, 196, 218, 118, 192, 97, 20, 27, 190, 0, 127, 127, 126, 189, 54, 99, 46, 207, 5, 36, 190, 150, 247, 227, 192, 124, 51, 249, 62, 46, 125, 91, 13, 15, 57, 175, 50, 207, 5, 36, 190, 150, 247, 227, 192, 124, 51, 249, 62, 55, 97, 91, 15, 15, 57, 175, 50, 156, 41, 214, 190, 150, 247, 227, 192, 75, 195, 99, 190, 26, 71, 75, 46, 20, 57, 230, 49, 156, 41, 214, 190, 150, 247, 227, 192, 75, 195, 99, 190, 44, 80, 74, 42, 20, 57, 230, 49, 132, 235, 148, 62, 150, 247, 227, 192, 91, 8, 246, 190, 227, 71, 210, 45, 21, 57, 51, 52, 132, 235, 148, 62, 150, 247, 227, 192, 91, 8, 246, 190, 255, 80, 215, 48, 21, 57, 51, 52, 31, 137, 12, 63, 150, 247, 227, 192, 139, 25, 106, 62, 210, 82, 164, 30, 18, 57, 141, 51, 31, 137, 12, 63, 150, 247, 227, 192, 139, 25, 106, 62, 201, 100, 165, 27, 18, 57, 141, 51, 166, 72, 223, 190, 150, 247, 227, 192, 255, 14, 62, 62, 55, 97, 90, 30, 16, 57, 74, 50, 166, 72, 223, 190, 150, 247, 227, 192, 255, 14, 62, 62, 44, 80, 91, 32, 16, 57, 74, 50, 123, 246, 239, 189, 150, 247, 227, 192, 100, 39, 255, 190, 255, 80, 223, 46, 31, 57, 100, 52, 123, 246, 239, 189, 150, 247, 227, 192, 100, 39, 255, 190, 26, 71, 67, 45, 31, 57, 129, 49, 163, 24, 17, 63, 150, 247, 227, 192, 187, 184, 55, 190, 210, 82, 182, 42, 18, 57, 255, 51, 163, 24, 17, 63, 150, 247, 227, 192, 187, 184, 55, 190, 227, 71, 184, 45, 18, 57, 255, 51, 125, 204, 125, 62, 150, 247, 227, 192, 69, 41, 1, 63, 201, 100, 166, 11, 16, 57, 27, 51, 125, 204, 125, 62, 150, 247, 227, 192, 69, 41, 1, 63, 46, 125, 168, 8, 16, 57, 27, 51, 16, 232, 36, 63, 75, 104, 45, 193, 73, 199, 139, 62, 60, 0, 4, 125, 45, 56, 186, 51, 16, 232, 36, 63, 75, 104, 45, 193, 73, 199, 139, 62, 121, 0, 5, 126, 45, 56, 186, 51, 40, 75, 145, 62, 75, 104, 45, 193, 0, 110, 26, 63, 251, 0, 0, 126, 44, 56, 54, 51, 40, 75, 145, 62, 75, 104, 45, 193, 0, 110, 26, 63, 60, 0, 4, 125, 44, 56, 54, 51, 101, 93, 42, 63, 75, 104, 45, 193, 103, 130, 92, 190, 127, 196, 247, 124, 47, 56, 31, 52, 101, 93, 42, 63, 75, 104, 45, 193, 103, 130, 92, 190, 121, 0, 5, 126, 47, 56, 31, 52, 20, 166, 171, 62, 75, 104, 45, 193, 21, 99, 19, 191, 127, 135, 245, 121, 50, 56, 96, 52, 20, 166, 171, 62, 75, 104, 45, 193, 21, 99, 19, 191, 127, 196, 246, 124, 50, 56, 96, 52, 209, 196, 28, 190, 75, 104, 45, 193, 107, 216, 24, 191, 129, 190, 11, 124, 48, 56, 37, 49, 209, 196, 28, 190, 75, 104, 45, 193, 107, 216, 24, 191, 127, 135, 245, 121, 53, 56, 155, 52, 175, 115, 3, 191, 75, 104, 45, 193, 35, 156, 136, 190, 129, 251, 6, 126, 46, 56, 170, 49, 175, 115, 3, 191, 75, 104, 45, 193, 35, 156, 136, 190, 129, 190, 10, 124, 46, 56, 170, 49, 178, 122, 81, 190, 75, 104, 45, 193, 168, 248, 20, 63, 190, 0, 253, 126, 44, 56, 178, 50, 178, 122, 81, 190, 75, 104, 45, 193, 168, 248, 20, 63, 251, 0, 0, 126, 44, 56, 178, 50, 5, 233, 8, 191, 75, 104, 45, 193, 183, 216, 98, 62, 129, 251, 6, 126, 44, 56, 46, 50, 5, 233, 8, 191, 75, 104, 45, 193, 183, 216, 98, 62, 190, 0, 252, 125, 44, 56, 46, 50, 178, 122, 81, 190, 190, 63, 226, 192, 167, 248, 20, 63, 190, 0, 0, 126, 8, 57, 174, 50, 178, 122, 81, 190, 190, 63, 226, 192, 167, 248, 20, 63, 251, 0, 3, 125, 8, 57, 174, 50, 178, 122, 81, 190, 190, 63, 226, 192, 167, 248, 20, 63, 46, 125, 88, 9, 8, 57, 174, 50, 178, 122, 81, 190, 190, 63, 226, 192, 167, 248, 20, 63, 55, 97, 91, 13, 8, 57, 174, 50, 175, 115, 3, 191, 190, 63, 226, 192, 38, 156, 136, 190, 129, 251, 4, 126, 13, 57, 223, 49, 175, 115, 3, 191, 190, 63, 226, 192, 38, 156, 136, 190, 129, 190, 9, 124, 13, 57, 223, 49, 175, 115, 3, 191, 190, 63, 226, 192, 38, 156, 136, 190, 26, 71, 77, 46, 13, 57, 223, 49, 175, 115, 3, 191, 190, 63, 226, 192, 38, 156, 136, 190, 44, 80, 80, 41, 13, 57, 223, 49, 20, 166, 171, 62, 190, 63, 226, 192, 22, 99, 19, 191, 227, 71, 213, 45, 15, 57, 55, 52, 20, 166, 171, 62, 190, 63, 226, 192, 22, 99, 19, 191, 255, 80, 216, 47, 15, 57, 55, 52, 20, 166, 171, 62, 190, 63, 226, 192, 22, 99, 19, 191, 127, 135, 244, 120, 15, 57, 55, 52, 20, 166, 171, 62, 190, 63, 226, 192, 22, 99, 19, 191, 127, 196, 241, 123, 15, 57, 55, 52, 16, 232, 36, 63, 190, 63, 226, 192, 70, 199, 139, 62, 210, 82, 166, 32, 9, 57, 143, 51, 16, 232, 36, 63, 190, 63, 226, 192, 70, 199, 139, 62, 201, 100, 165, 29, 9, 57, 143, 51, 16, 232, 36, 63, 190, 63, 226, 192, 70, 199, 139, 62, 60, 0, 8, 124, 9, 57, 143, 51, 16, 232, 36, 63, 190, 63, 226, 192, 70, 199, 139, 62, 121, 0, 8, 126, 9, 57, 143, 51, 5, 233, 8, 191, 190, 63, 226, 192, 177, 216, 98, 62, 129, 251, 3, 126, 9, 57, 72, 50, 5, 233, 8, 191, 190, 63, 226, 192, 177, 216, 98, 62, 190, 0, 0, 126, 9, 57, 72, 50, 5, 233, 8, 191, 190, 63, 226, 192, 177, 216, 98, 62, 55, 97, 91, 27, 9, 57, 72, 50, 5, 233, 8, 191, 190, 63, 226, 192, 177, 216, 98, 62, 44, 80, 93, 31, 9, 57, 72, 50, 209, 196, 28, 190, 190, 63, 226, 192, 108, 216, 24, 191, 129, 190, 9, 124, 24, 57, 106, 49, 209, 196, 28, 190, 190, 63, 226, 192, 108, 216, 24, 191, 255, 80, 224, 46, 25, 57, 110, 52, 209, 196, 28, 190, 190, 63, 226, 192, 108, 216, 24, 191, 127, 135, 244, 120, 25, 57, 110, 52, 209, 196, 28, 190, 190, 63, 226, 192, 108, 216, 24, 191, 26, 71, 69, 45, 24, 57, 106, 49, 101, 93, 42, 63, 190, 63, 226, 192, 109, 130, 92, 190, 210, 82, 185, 44, 11, 57, 1, 52, 101, 93, 42, 63, 190, 63, 226, 192, 109, 130, 92, 190, 227, 71, 191, 45, 11, 57, 1, 52, 101, 93, 42, 63, 190, 63, 226, 192, 109, 130, 92, 190, 127, 196, 241, 123, 11, 57, 1, 52, 101, 93, 42, 63, 190, 63, 226, 192, 109, 130, 92, 190, 121, 0, 8, 126, 11, 57, 1, 52, 40, 75, 145, 62, 190, 63, 226, 192, 255, 109, 26, 63, 201, 100, 166, 15, 8, 57, 28, 51, 40, 75, 145, 62, 190, 63, 226, 192, 255, 109, 26, 63, 251, 0, 3, 124, 8, 57, 28, 51, 40, 75, 145, 62, 190, 63, 226, 192, 255, 109, 26, 63, 46, 125, 166, 11, 8, 57, 28, 51, 40, 75, 145, 62, 190, 63, 226, 192, 255, 109, 26, 63, 60, 0, 7, 124, 8, 57, 28, 51 ),
"array_index_data": PoolByteArray( 1, 0, 30, 0, 14, 0, 1, 0, 17, 0, 30, 0, 3, 0, 16, 0, 0, 0, 3, 0, 19, 0, 16, 0, 4, 0, 18, 0, 2, 0, 4, 0, 20, 0, 18, 0, 6, 0, 21, 0, 5, 0, 6, 0, 22, 0, 21, 0, 8, 0, 23, 0, 7, 0, 8, 0, 24, 0, 23, 0, 10, 0, 25, 0, 9, 0, 10, 0, 26, 0, 25, 0, 13, 0, 27, 0, 11, 0, 13, 0, 29, 0, 27, 0, 15, 0, 28, 0, 12, 0, 15, 0, 31, 0, 28, 0, 34, 0, 47, 0, 36, 0, 34, 0, 44, 0, 47, 0, 40, 0, 46, 0, 43, 0, 40, 0, 49, 0, 46, 0, 37, 0, 50, 0, 38, 0, 37, 0, 48, 0, 50, 0, 39, 0, 42, 0, 33, 0, 39, 0, 51, 0, 42, 0, 32, 0, 45, 0, 35, 0, 32, 0, 41, 0, 45, 0, 62, 0, 93, 0, 57, 0, 62, 0, 105, 0, 93, 0, 67, 0, 86, 0, 52, 0, 67, 0, 114, 0, 86, 0, 59, 0, 112, 0, 66, 0, 59, 0, 97, 0, 112, 0, 56, 0, 109, 0, 65, 0, 56, 0, 92, 0, 109, 0, 80, 0, 101, 0, 84, 0, 80, 0, 83, 0, 101, 0, 79, 0, 104, 0, 89, 0, 79, 0, 76, 0, 104, 0, 75, 0, 110, 0, 95, 0, 75, 0, 72, 0, 110, 0, 68, 0, 115, 0, 98, 0, 68, 0, 71, 0, 115, 0, 70, 0, 85, 0, 113, 0, 70, 0, 81, 0, 85, 0, 77, 0, 94, 0, 106, 0, 77, 0, 74, 0, 94, 0, 73, 0, 99, 0, 111, 0, 73, 0, 69, 0, 99, 0, 82, 0, 88, 0, 100, 0, 82, 0, 78, 0, 88, 0, 64, 0, 96, 0, 58, 0, 64, 0, 108, 0, 96, 0, 61, 0, 91, 0, 55, 0, 61, 0, 103, 0, 91, 0, 53, 0, 102, 0, 60, 0, 53, 0, 87, 0, 102, 0, 54, 0, 107, 0, 63, 0, 54, 0, 90, 0, 107, 0 ),
"blend_shape_data": [  ],
"format": 2194711,
"index_count": 174,
"material": ExtResource( 3 ),
"primitive": 4,
"skeleton_aabb": [  ],
"vertex_count": 116
}
surfaces/2 = {
"aabb": AABB( -0.331436, -6.97376, -0.391977, 0.789988, 1.00136e-05, 0.789998 ),
"array_data": PoolByteArray( 195, 76, 84, 62, 6, 41, 223, 192, 4, 200, 203, 62, 0, 130, 130, 96, 191, 51, 166, 47, 250, 151, 227, 62, 6, 41, 223, 192, 78, 255, 56, 62, 0, 130, 130, 96, 191, 51, 10, 47, 84, 199, 234, 62, 6, 41, 223, 192, 167, 32, 16, 190, 0, 130, 130, 96, 246, 51, 156, 46, 233, 253, 118, 62, 6, 41, 223, 192, 237, 129, 193, 190, 0, 130, 130, 96, 34, 52, 156, 46, 29, 68, 164, 189, 6, 41, 223, 192, 65, 177, 200, 190, 0, 130, 130, 96, 61, 52, 10, 47, 160, 130, 162, 190, 6, 41, 223, 192, 206, 209, 50, 190, 0, 130, 130, 96, 61, 52, 166, 47, 250, 177, 169, 190, 6, 41, 223, 192, 42, 78, 22, 62, 0, 130, 130, 96, 34, 52, 10, 48, 113, 166, 233, 189, 6, 41, 223, 192, 172, 152, 196, 62, 0, 130, 130, 96, 246, 51, 10, 48 ),
"array_index_data": PoolByteArray( 3, 0, 1, 0, 2, 0, 1, 0, 7, 0, 0, 0, 7, 0, 5, 0, 6, 0, 5, 0, 3, 0, 4, 0, 3, 0, 7, 0, 1, 0, 7, 0, 3, 0, 5, 0 ),
"blend_shape_data": [  ],
"format": 2194711,
"index_count": 18,
"material": ExtResource( 2 ),
"primitive": 4,
"skeleton_aabb": [  ],
"vertex_count": 8
}

[sub_resource type="ArrayMesh" id=2]
resource_name = "SideWeaponFrontB_Plano001"
surfaces/0 = {
"aabb": AABB( -1, -0.421869, -1.10608, 2, 0.153447, 2.21217 ),
"array_data": PoolByteArray( 0, 0, 128, 191, 41, 255, 215, 190, 188, 223, 171, 62, 129, 0, 104, 1, 219, 55, 207, 36, 0, 0, 128, 191, 41, 255, 215, 190, 188, 223, 171, 62, 221, 0, 159, 91, 219, 55, 207, 36, 0, 0, 128, 63, 41, 255, 215, 190, 48, 148, 141, 63, 221, 0, 166, 94, 5, 54, 94, 44, 0, 0, 128, 63, 41, 255, 215, 190, 48, 148, 141, 63, 127, 0, 0, 97, 5, 54, 94, 44, 0, 0, 128, 191, 41, 255, 215, 190, 188, 223, 171, 190, 129, 0, 104, 1, 57, 56, 247, 38, 0, 0, 128, 191, 41, 255, 215, 190, 188, 223, 171, 190, 129, 91, 173, 69, 53, 56, 212, 50, 0, 0, 128, 63, 41, 255, 215, 190, 48, 148, 141, 191, 129, 91, 176, 70, 57, 54, 6, 50, 0, 0, 128, 63, 41, 255, 215, 190, 48, 148, 141, 191, 127, 0, 62, 127, 57, 54, 6, 50, 0, 0, 128, 191, 152, 110, 137, 190, 188, 223, 171, 62, 129, 0, 104, 1, 222, 55, 25, 39, 0, 0, 128, 191, 152, 110, 137, 190, 188, 223, 171, 62, 221, 0, 158, 91, 222, 55, 25, 39, 0, 0, 128, 191, 152, 110, 137, 190, 188, 223, 171, 62, 0, 126, 129, 13, 222, 55, 25, 39, 0, 0, 128, 191, 152, 110, 137, 190, 188, 223, 171, 62, 0, 127, 129, 97, 222, 55, 25, 39, 0, 0, 128, 63, 152, 110, 137, 190, 48, 148, 141, 63, 221, 0, 166, 94, 42, 54, 204, 44, 0, 0, 128, 63, 152, 110, 137, 190, 48, 148, 141, 63, 0, 127, 130, 91, 42, 54, 204, 44, 0, 0, 128, 63, 152, 110, 137, 190, 48, 148, 141, 63, 0, 126, 130, 85, 42, 54, 204, 44, 0, 0, 128, 63, 152, 110, 137, 190, 48, 148, 141, 63, 127, 0, 0, 96, 42, 54, 204, 44, 0, 0, 128, 191, 152, 110, 137, 190, 188, 223, 171, 190, 129, 0, 104, 1, 53, 56, 145, 40, 0, 0, 128, 191, 152, 110, 137, 190, 188, 223, 171, 190, 129, 91, 173, 69, 57, 56, 101, 50, 0, 0, 128, 191, 152, 110, 137, 190, 188, 223, 171, 190, 0, 126, 129, 14, 53, 56, 145, 40, 0, 0, 128, 191, 152, 110, 137, 190, 188, 223, 171, 190, 0, 127, 175, 63, 57, 56, 101, 50, 0, 0, 128, 63, 152, 110, 137, 190, 48, 148, 141, 191, 129, 91, 176, 70, 97, 54, 195, 49, 0, 0, 128, 63, 152, 110, 137, 190, 48, 148, 141, 191, 0, 127, 175, 63, 97, 54, 195, 49, 0, 0, 128, 63, 152, 110, 137, 190, 48, 148, 141, 191, 0, 126, 166, 63, 97, 54, 195, 49, 0, 0, 128, 63, 152, 110, 137, 190, 48, 148, 141, 191, 127, 0, 60, 127, 97, 54, 195, 49, 141, 172, 72, 191, 152, 110, 137, 190, 165, 186, 134, 62, 0, 126, 129, 13, 210, 55, 227, 40, 141, 172, 72, 191, 152, 110, 137, 190, 165, 186, 134, 62, 0, 127, 129, 98, 210, 55, 227, 40, 141, 172, 72, 63, 152, 110, 137, 190, 102, 246, 93, 63, 0, 127, 130, 91, 108, 54, 24, 45, 141, 172, 72, 63, 152, 110, 137, 190, 102, 246, 93, 63, 0, 126, 130, 89, 108, 54, 24, 45, 141, 172, 72, 191, 152, 110, 137, 190, 164, 186, 134, 190, 0, 126, 129, 14, 36, 56, 44, 42, 141, 172, 72, 191, 152, 110, 137, 190, 164, 186, 134, 190, 0, 127, 175, 63, 37, 56, 10, 50, 141, 172, 72, 63, 152, 110, 137, 190, 102, 246, 93, 191, 0, 127, 175, 63, 142, 54, 136, 49, 141, 172, 72, 63, 152, 110, 137, 190, 102, 246, 93, 191, 0, 126, 163, 63, 142, 54, 136, 49 ),
"array_index_data": PoolByteArray( 21, 0, 29, 0, 19, 0, 21, 0, 30, 0, 29, 0, 3, 0, 23, 0, 7, 0, 3, 0, 15, 0, 23, 0, 4, 0, 8, 0, 0, 0, 4, 0, 16, 0, 8, 0, 6, 0, 17, 0, 5, 0, 6, 0, 20, 0, 17, 0, 1, 0, 12, 0, 2, 0, 1, 0, 9, 0, 12, 0, 11, 0, 26, 0, 13, 0, 11, 0, 25, 0, 26, 0, 14, 0, 31, 0, 22, 0, 14, 0, 27, 0, 31, 0, 18, 0, 24, 0, 10, 0, 18, 0, 28, 0, 24, 0 ),
"blend_shape_data": [  ],
"format": 2194711,
"index_count": 48,
"material": ExtResource( 1 ),
"primitive": 4,
"skeleton_aabb": [  ],
"vertex_count": 32
}
surfaces/1 = {
"aabb": AABB( -0.783883, -0.268422, -0.867041, 1.56777, 0.585267, 1.73408 ),
"array_data": PoolByteArray( 141, 172, 72, 191, 152, 110, 137, 190, 165, 186, 134, 62, 129, 0, 105, 1, 224, 57, 44, 55, 141, 172, 72, 191, 152, 110, 137, 190, 165, 186, 134, 62, 221, 0, 153, 89, 224, 57, 44, 55, 141, 172, 72, 63, 152, 110, 137, 190, 102, 246, 93, 63, 221, 0, 160, 92, 148, 56, 0, 56, 141, 172, 72, 63, 152, 110, 137, 190, 102, 246, 93, 63, 127, 0, 0, 98, 148, 56, 0, 56, 141, 172, 72, 191, 152, 110, 137, 190, 164, 186, 134, 190, 129, 0, 104, 1, 78, 58, 88, 55, 141, 172, 72, 191, 152, 110, 137, 190, 164, 186, 134, 190, 129, 91, 169, 66, 76, 58, 139, 57, 141, 172, 72, 63, 152, 110, 137, 190, 102, 246, 93, 191, 129, 91, 165, 63, 203, 56, 109, 57, 141, 172, 72, 63, 152, 110, 137, 190, 102, 246, 93, 191, 127, 0, 59, 127, 203, 56, 109, 57, 141, 172, 72, 191, 104, 222, 86, 61, 165, 186, 134, 62, 129, 0, 104, 1, 224, 57, 172, 55, 141, 172, 72, 191, 104, 222, 86, 61, 165, 186, 134, 62, 203, 73, 145, 10, 224, 57, 172, 55, 141, 172, 72, 191, 104, 222, 86, 61, 165, 186, 134, 62, 221, 0, 151, 89, 224, 57, 172, 55, 141, 172, 72, 191, 104, 222, 86, 61, 165, 186, 134, 62, 236, 52, 148, 94, 224, 57, 172, 55, 141, 172, 72, 63, 104, 222, 86, 61, 102, 246, 93, 63, 221, 0, 159, 91, 214, 56, 49, 56, 141, 172, 72, 63, 104, 222, 86, 61, 102, 246, 93, 63, 236, 52, 147, 93, 214, 56, 49, 56, 141, 172, 72, 63, 104, 222, 86, 61, 102, 246, 93, 63, 53, 73, 176, 95, 214, 56, 49, 56, 141, 172, 72, 63, 104, 222, 86, 61, 102, 246, 93, 63, 127, 0, 0, 94, 214, 56, 49, 56, 141, 172, 72, 191, 104, 222, 86, 61, 164, 186, 134, 190, 129, 0, 103, 1, 65, 58, 221, 55, 141, 172, 72, 191, 104, 222, 86, 61, 164, 186, 134, 190, 203, 73, 148, 12, 65, 58, 221, 55, 141, 172, 72, 191, 104, 222, 86, 61, 164, 186, 134, 190, 129, 91, 169, 66, 78, 58, 50, 57, 141, 172, 72, 191, 104, 222, 86, 61, 164, 186, 134, 190, 182, 106, 165, 63, 78, 58, 50, 57, 141, 172, 72, 63, 104, 222, 86, 61, 102, 246, 93, 191, 129, 91, 165, 63, 12, 57, 50, 57, 141, 172, 72, 63, 104, 222, 86, 61, 102, 246, 93, 191, 182, 106, 165, 59, 12, 57, 50, 57, 141, 172, 72, 63, 104, 222, 86, 61, 102, 246, 93, 191, 53, 73, 182, 91, 12, 57, 50, 57, 141, 172, 72, 63, 104, 222, 86, 61, 102, 246, 93, 191, 127, 0, 51, 127, 12, 57, 50, 57, 69, 145, 217, 190, 147, 57, 162, 62, 47, 18, 18, 62, 203, 73, 148, 12, 206, 57, 36, 56, 69, 145, 217, 190, 147, 57, 162, 62, 47, 18, 18, 62, 236, 52, 148, 94, 206, 57, 36, 56, 69, 145, 217, 190, 147, 57, 162, 62, 47, 18, 18, 62, 0, 127, 129, 97, 206, 57, 36, 56, 69, 145, 217, 190, 147, 57, 162, 62, 47, 18, 18, 62, 0, 126, 130, 91, 206, 57, 36, 56, 69, 145, 217, 62, 147, 57, 162, 62, 232, 165, 240, 62, 236, 52, 147, 93, 50, 57, 88, 56, 69, 145, 217, 62, 147, 57, 162, 62, 232, 165, 240, 62, 0, 127, 129, 87, 50, 57, 88, 56, 69, 145, 217, 62, 147, 57, 162, 62, 232, 165, 240, 62, 0, 126, 130, 90, 50, 57, 88, 56, 69, 145, 217, 62, 147, 57, 162, 62, 232, 165, 240, 62, 53, 73, 172, 97, 50, 57, 88, 56, 69, 145, 217, 190, 147, 57, 162, 62, 47, 18, 18, 190, 203, 73, 152, 15, 0, 58, 68, 56, 69, 145, 217, 190, 147, 57, 162, 62, 47, 18, 18, 190, 182, 106, 165, 62, 255, 57, 223, 56, 69, 145, 217, 190, 147, 57, 162, 62, 47, 18, 18, 190, 0, 126, 155, 63, 255, 57, 223, 56, 69, 145, 217, 190, 147, 57, 162, 62, 47, 18, 18, 190, 0, 127, 129, 100, 0, 58, 68, 56, 69, 145, 217, 62, 147, 57, 162, 62, 232, 165, 240, 190, 182, 106, 165, 57, 76, 57, 245, 56, 69, 145, 217, 62, 147, 57, 162, 62, 232, 165, 240, 190, 0, 126, 153, 63, 76, 57, 245, 56, 69, 145, 217, 62, 147, 57, 162, 62, 232, 165, 240, 190, 0, 127, 151, 63, 76, 57, 245, 56, 69, 145, 217, 62, 147, 57, 162, 62, 232, 165, 240, 190, 53, 73, 181, 92, 76, 57, 245, 56, 254, 129, 179, 190, 147, 57, 162, 62, 109, 9, 241, 189, 0, 126, 155, 63, 242, 57, 214, 56, 254, 129, 179, 190, 147, 57, 162, 62, 109, 9, 241, 189, 0, 127, 129, 101, 242, 57, 79, 56, 254, 129, 179, 190, 147, 57, 162, 62, 109, 9, 241, 189, 35, 0, 0, 1, 78, 58, 139, 57, 254, 129, 179, 190, 147, 57, 162, 62, 109, 9, 241, 189, 127, 0, 0, 1, 78, 58, 73, 55, 254, 129, 179, 190, 147, 57, 162, 62, 111, 9, 241, 61, 0, 127, 129, 98, 199, 57, 49, 56, 254, 129, 179, 190, 147, 57, 162, 62, 111, 9, 241, 61, 0, 126, 130, 92, 199, 57, 49, 56, 254, 129, 179, 190, 147, 57, 162, 62, 111, 9, 241, 61, 127, 91, 0, 1, 78, 58, 164, 55, 254, 129, 179, 190, 147, 57, 162, 62, 111, 9, 241, 61, 127, 0, 0, 1, 78, 58, 164, 55, 254, 129, 179, 62, 147, 57, 162, 62, 3, 141, 198, 62, 129, 0, 0, 1, 78, 58, 99, 56, 254, 129, 179, 62, 147, 57, 162, 62, 3, 141, 198, 62, 0, 127, 129, 90, 65, 57, 93, 56, 254, 129, 179, 62, 147, 57, 162, 62, 3, 141, 198, 62, 0, 126, 130, 90, 65, 57, 93, 56, 254, 129, 179, 62, 147, 57, 162, 62, 3, 141, 198, 62, 127, 91, 0, 1, 78, 58, 99, 56, 254, 129, 179, 62, 147, 57, 162, 62, 3, 141, 198, 190, 129, 0, 0, 1, 78, 58, 249, 56, 254, 129, 179, 62, 147, 57, 162, 62, 3, 141, 198, 190, 0, 126, 153, 63, 88, 57, 233, 56, 254, 129, 179, 62, 147, 57, 162, 62, 3, 141, 198, 190, 0, 127, 148, 63, 88, 57, 233, 56, 254, 129, 179, 62, 147, 57, 162, 62, 3, 141, 198, 190, 35, 0, 0, 1, 78, 58, 249, 56, 254, 129, 179, 190, 220, 31, 39, 62, 109, 9, 241, 189, 35, 0, 0, 1, 108, 58, 139, 57, 254, 129, 179, 190, 220, 31, 39, 62, 109, 9, 241, 189, 127, 0, 0, 1, 108, 58, 73, 55, 254, 129, 179, 190, 220, 31, 39, 62, 111, 9, 241, 61, 127, 91, 0, 1, 108, 58, 164, 55, 254, 129, 179, 190, 220, 31, 39, 62, 111, 9, 241, 61, 127, 0, 0, 1, 108, 58, 164, 55, 254, 129, 179, 62, 220, 31, 39, 62, 3, 141, 198, 62, 129, 0, 0, 1, 108, 58, 99, 56, 254, 129, 179, 62, 220, 31, 39, 62, 3, 141, 198, 62, 127, 91, 0, 1, 108, 58, 99, 56, 254, 129, 179, 62, 220, 31, 39, 62, 3, 141, 198, 190, 129, 0, 0, 1, 108, 58, 249, 56, 254, 129, 179, 62, 220, 31, 39, 62, 3, 141, 198, 190, 35, 0, 0, 1, 108, 58, 249, 56 ),
"array_index_data": PoolByteArray( 1, 0, 12, 0, 2, 0, 1, 0, 10, 0, 12, 0, 14, 0, 39, 0, 22, 0, 14, 0, 31, 0, 39, 0, 3, 0, 23, 0, 7, 0, 3, 0, 15, 0, 23, 0, 4, 0, 8, 0, 0, 0, 4, 0, 16, 0, 8, 0, 6, 0, 18, 0, 5, 0, 6, 0, 20, 0, 18, 0, 29, 0, 54, 0, 38, 0, 29, 0, 49, 0, 54, 0, 17, 0, 24, 0, 9, 0, 17, 0, 32, 0, 24, 0, 21, 0, 33, 0, 19, 0, 21, 0, 36, 0, 33, 0, 11, 0, 28, 0, 13, 0, 11, 0, 25, 0, 28, 0, 55, 0, 56, 0, 42, 0, 55, 0, 63, 0, 56, 0, 35, 0, 44, 0, 26, 0, 35, 0, 41, 0, 44, 0, 37, 0, 40, 0, 34, 0, 37, 0, 53, 0, 40, 0, 27, 0, 50, 0, 30, 0, 27, 0, 45, 0, 50, 0, 46, 0, 61, 0, 51, 0, 46, 0, 58, 0, 61, 0, 48, 0, 62, 0, 52, 0, 48, 0, 60, 0, 62, 0, 43, 0, 59, 0, 47, 0, 43, 0, 57, 0, 59, 0 ),
"blend_shape_data": [  ],
"format": 2194711,
"index_count": 96,
"material": ExtResource( 3 ),
"primitive": 4,
"skeleton_aabb": [  ],
"vertex_count": 64
}
surfaces/2 = {
"aabb": AABB( -0.350601, 0.163207, -0.387795, 0.701202, 9.99868e-06, 0.775589 ),
"array_data": PoolByteArray( 254, 129, 179, 190, 220, 31, 39, 62, 109, 9, 241, 189, 0, 127, 126, 63, 116, 46, 167, 49, 254, 129, 179, 190, 220, 31, 39, 62, 111, 9, 241, 61, 0, 127, 126, 63, 116, 46, 43, 51, 254, 129, 179, 62, 220, 31, 39, 62, 3, 141, 198, 62, 0, 127, 126, 63, 189, 51, 116, 52, 254, 129, 179, 62, 220, 31, 39, 62, 3, 141, 198, 190, 0, 127, 126, 63, 189, 51, 213, 47 ),
"array_index_data": PoolByteArray( 1, 0, 3, 0, 2, 0, 1, 0, 0, 0, 3, 0 ),
"blend_shape_data": [  ],
"format": 2194711,
"index_count": 6,
"material": ExtResource( 2 ),
"primitive": 4,
"skeleton_aabb": [  ],
"vertex_count": 4
}

[sub_resource type="QuadMesh" id=3]
size = Vector2( 0.11, 0.11 )

[sub_resource type="Animation" id=5]
length = 0.001
tracks/0/type = "value"
tracks/0/path = NodePath("Cano 1:translation")
tracks/0/interp = 1
tracks/0/loop_wrap = true
tracks/0/imported = false
tracks/0/enabled = true
tracks/0/keys = {
"times": PoolRealArray( 0 ),
"transitions": PoolRealArray( 1 ),
"update": 0,
"values": [ Vector3( 4.02652, 0.193008, 2.12857 ) ]
}
tracks/1/type = "value"
tracks/1/path = NodePath("Cano 2:translation")
tracks/1/interp = 1
tracks/1/loop_wrap = true
tracks/1/imported = false
tracks/1/enabled = true
tracks/1/keys = {
"times": PoolRealArray( 0 ),
"transitions": PoolRealArray( 1 ),
"update": 0,
"values": [ Vector3( 3.95446, 0.0645798, 2.1373 ) ]
}
tracks/2/type = "value"
tracks/2/path = NodePath("Cano 3:translation")
tracks/2/interp = 1
tracks/2/loop_wrap = true
tracks/2/imported = false
tracks/2/enabled = true
tracks/2/keys = {
"times": PoolRealArray( 0 ),
"transitions": PoolRealArray( 1 ),
"update": 0,
"values": [ Vector3( 4.09864, 0.0645798, 2.12027 ) ]
}

[sub_resource type="Animation" id=4]
resource_name = "shoot"
length = 1.5
tracks/0/type = "value"
tracks/0/path = NodePath("Cano 1:translation")
tracks/0/interp = 1
tracks/0/loop_wrap = true
tracks/0/imported = false
tracks/0/enabled = true
tracks/0/keys = {
"times": PoolRealArray( 0.1, 0.2, 0.3, 0.4, 0.5, 0.6, 0.7, 0.8, 0.9, 1, 1.1, 1.2 ),
"transitions": PoolRealArray( 1, 1, 1, 1, 1, 1, 1, 1, 1, 1, 1, 1 ),
"update": 0,
"values": [ Vector3( 4.03127, 0.193008, 2.16892 ), Vector3( 4.02652, 0.193008, 2.12857 ), Vector3( 4.03127, 0.193008, 2.16892 ), Vector3( 4.03127, 0.193008, 2.16892 ), Vector3( 4.02652, 0.193008, 2.12857 ), Vector3( 4.03127, 0.193008, 2.16892 ), Vector3( 4.03127, 0.193008, 2.16892 ), Vector3( 4.02652, 0.193008, 2.12857 ), Vector3( 4.03127, 0.193008, 2.16892 ), Vector3( 4.03127, 0.193008, 2.16892 ), Vector3( 4.02652, 0.193008, 2.12857 ), Vector3( 4.03127, 0.193008, 2.16892 ) ]
}
tracks/1/type = "value"
tracks/1/path = NodePath("Fire:emitting")
tracks/1/interp = 1
tracks/1/loop_wrap = true
tracks/1/imported = false
tracks/1/enabled = true
tracks/1/keys = {
"times": PoolRealArray( 0.1, 0.2, 0.3, 0.4, 0.5, 0.6, 0.7, 0.8, 0.9, 1, 1.1, 1.2 ),
"transitions": PoolRealArray( 1, 1, 1, 1, 1, 1, 1, 1, 1, 1, 1, 1 ),
"update": 1,
"values": [ false, true, false, false, true, false, false, true, false, false, true, false ]
}
tracks/2/type = "value"
tracks/2/path = NodePath("Fire:visible")
tracks/2/interp = 1
tracks/2/loop_wrap = true
tracks/2/imported = false
tracks/2/enabled = true
tracks/2/keys = {
"times": PoolRealArray( 0.1, 0.2, 0.3, 0.4, 0.5, 0.6, 0.7, 0.8, 0.9, 1, 1.1, 1.2 ),
"transitions": PoolRealArray( 1, 1, 1, 1, 1, 1, 1, 1, 1, 1, 1, 1 ),
"update": 1,
"values": [ false, true, false, false, true, false, false, true, false, false, true, false ]
}
tracks/3/type = "value"
tracks/3/path = NodePath("Cano 2:translation")
tracks/3/interp = 1
tracks/3/loop_wrap = true
tracks/3/imported = false
tracks/3/enabled = true
tracks/3/keys = {
"times": PoolRealArray( 0.2, 0.3, 0.4, 0.5, 0.6, 0.7, 0.8, 0.9, 1, 1.1, 1.2, 1.3 ),
"transitions": PoolRealArray( 1, 1, 1, 1, 1, 1, 1, 1, 1, 1, 1, 1 ),
"update": 0,
"values": [ Vector3( 3.95918, 0.0645798, 2.1774 ), Vector3( 3.95446, 0.0645798, 2.1373 ), Vector3( 3.95918, 0.0645798, 2.1774 ), Vector3( 3.95918, 0.0645798, 2.1774 ), Vector3( 3.95446, 0.0645798, 2.1373 ), Vector3( 3.95918, 0.0645798, 2.1774 ), Vector3( 3.95918, 0.0645798, 2.1774 ), Vector3( 3.95446, 0.0645798, 2.1373 ), Vector3( 3.95918, 0.0645798, 2.1774 ), Vector3( 3.95918, 0.0645798, 2.1774 ), Vector3( 3.95446, 0.0645798, 2.1373 ), Vector3( 3.95918, 0.0645798, 2.1774 ) ]
}
tracks/4/type = "value"
tracks/4/path = NodePath("Fire2:emitting")
tracks/4/interp = 1
tracks/4/loop_wrap = true
tracks/4/imported = false
tracks/4/enabled = true
tracks/4/keys = {
"times": PoolRealArray( 0.2, 0.3, 0.4, 0.5, 0.6, 0.7, 0.8, 0.9, 1, 1.1, 1.2, 1.3 ),
"transitions": PoolRealArray( 1, 1, 1, 1, 1, 1, 1, 1, 1, 1, 1, 1 ),
"update": 1,
"values": [ false, true, false, false, true, false, false, true, false, false, true, false ]
}
tracks/5/type = "value"
tracks/5/path = NodePath("Fire2:visible")
tracks/5/interp = 1
tracks/5/loop_wrap = true
tracks/5/imported = false
tracks/5/enabled = true
tracks/5/keys = {
"times": PoolRealArray( 0.2, 0.3, 0.4, 0.5, 0.6, 0.7, 0.8, 0.9, 1, 1.1, 1.2, 1.3 ),
"transitions": PoolRealArray( 1, 1, 1, 1, 1, 1, 1, 1, 1, 1, 1, 1 ),
"update": 1,
"values": [ false, true, false, false, true, false, false, true, false, false, true, false ]
}
tracks/6/type = "value"
tracks/6/path = NodePath("Cano 3:translation")
tracks/6/interp = 1
tracks/6/loop_wrap = true
tracks/6/imported = false
tracks/6/enabled = true
tracks/6/keys = {
"times": PoolRealArray( 0.3, 0.4, 0.5, 0.6, 0.7, 0.8, 0.9, 1, 1.1, 1.2, 1.3, 1.4 ),
"transitions": PoolRealArray( 1, 1, 1, 1, 1, 1, 1, 1, 1, 1, 1, 1 ),
"update": 0,
"values": [ Vector3( 4.10336, 0.0645798, 2.16044 ), Vector3( 4.09864, 0.0645798, 2.12027 ), Vector3( 4.10336, 0.0645798, 2.16044 ), Vector3( 4.10336, 0.0645798, 2.16044 ), Vector3( 4.09864, 0.0645798, 2.12027 ), Vector3( 4.10336, 0.0645798, 2.16044 ), Vector3( 4.10336, 0.0645798, 2.16044 ), Vector3( 4.09864, 0.0645798, 2.12027 ), Vector3( 4.10336, 0.0645798, 2.16044 ), Vector3( 4.10336, 0.0645798, 2.16044 ), Vector3( 4.09864, 0.0645798, 2.12027 ), Vector3( 4.10336, 0.0645798, 2.16044 ) ]
}
tracks/7/type = "value"
tracks/7/path = NodePath("Fire3:emitting")
tracks/7/interp = 1
tracks/7/loop_wrap = true
tracks/7/imported = false
tracks/7/enabled = true
tracks/7/keys = {
"times": PoolRealArray( 0.3, 0.4, 0.5, 0.6, 0.7, 0.8, 0.9, 1, 1.1, 1.2, 1.3, 1.4 ),
"transitions": PoolRealArray( 1, 1, 1, 1, 1, 1, 1, 1, 1, 1, 1, 1 ),
"update": 1,
"values": [ false, true, false, false, true, false, false, true, false, false, true, false ]
}
tracks/8/type = "value"
tracks/8/path = NodePath("Fire3:visible")
tracks/8/interp = 1
tracks/8/loop_wrap = true
tracks/8/imported = false
tracks/8/enabled = true
tracks/8/keys = {
"times": PoolRealArray( 0.3, 0.4, 0.5, 0.6, 0.7, 0.8, 0.9, 1, 1.1, 1.2, 1.3, 1.4 ),
"transitions": PoolRealArray( 1, 1, 1, 1, 1, 1, 1, 1, 1, 1, 1, 1 ),
"update": 1,
"values": [ false, true, false, false, true, false, false, true, false, false, true, false ]
}

[node name="SideWeaponFrontB" type="Spatial"]

[node name="Cano 1" type="MeshInstance" parent="."]
transform = Transform( 0, 0.00798311, -0.107603, -0.108344, 0, 0, 0, 0.0678865, 0.0126536, 4.02652, 0.193008, 2.12857 )
mesh = SubResource( 1 )
material/0 = null
material/1 = null
material/2 = null

[node name="Cano 2" type="MeshInstance" parent="."]
transform = Transform( 1.29157e-08, 0.00798311, -0.107603, -0.108344, 0, -6.45783e-09, -6.45783e-09, 0.0678865, 0.0126536, 3.95446, 0.0645798, 2.1373 )
mesh = SubResource( 1 )
material/0 = null
material/1 = null
material/2 = null

[node name="Cano 3" type="MeshInstance" parent="."]
transform = Transform( 1.29157e-08, 0.00798311, -0.107603, -0.108344, 0, -6.45783e-09, -6.45783e-09, 0.0678865, 0.0126536, 4.09864, 0.0645798, 2.12027 )
mesh = SubResource( 1 )
material/0 = null
material/1 = null
material/2 = null

[node name="Base" type="MeshInstance" parent="."]
transform = Transform( 6.65646e-08, 0.0652138, -0.554563, -0.558384, 0, -3.32823e-08, -3.32823e-08, 0.554563, 0.0652138, 3.93767, 0.143008, 1.34593 )
mesh = SubResource( 2 )
material/0 = null
material/1 = null
material/2 = null

[node name="Cano 1001" type="MeshInstance" parent="."]
transform = Transform( 0, 0.00754031, 0.107683, -0.108344, -8.14847e-09, 1.29157e-08, 0, -0.0679371, 0.0119517, 4.0315, 0.193008, -2.1733 )
mesh = SubResource( 1 )
material/0 = null
material/1 = null
material/2 = null

[node name="Cano 2001" type="MeshInstance" parent="."]
transform = Transform( 0, 0.00754031, 0.107683, -0.108344, -8.14847e-09, 1.29157e-08, 0, -0.0679371, 0.0119517, 4.10364, 0.0645798, -2.16529 )
mesh = SubResource( 1 )
material/0 = null
material/1 = null
material/2 = null

[node name="Cano 3001" type="MeshInstance" parent="."]
transform = Transform( 0, 0.00754031, 0.107683, -0.108344, -8.14847e-09, 1.29157e-08, 0, -0.0679371, 0.0119517, 3.95935, 0.0645798, -2.1813 )
mesh = SubResource( 1 )
material/0 = null
material/1 = null
material/2 = null

[node name="Base001" type="MeshInstance" parent="."]
transform = Transform( 0, 0.0615965, 0.554976, -0.558384, -6.65646e-08, 6.65646e-08, 0, -0.554976, 0.0615965, 3.93699, 0.143008, -1.35042 )
mesh = SubResource( 2 )
material/0 = null
material/1 = null
material/2 = null

[node name="Fire" parent="." instance=ExtResource( 4 )]
transform = Transform( 0.99367, 0.112336, -4.91037e-09, 0, -4.37114e-08, -1, -0.112336, 0.99367, -4.34347e-08, 4.06454, 0.19204, 2.44576 )
visible = false
emitting = false
lifetime = 0.3
one_shot = true
speed_scale = 5.0
randomness = 1.0
draw_pass_1 = SubResource( 3 )

[node name="Fire2" parent="." instance=ExtResource( 4 )]
transform = Transform( 0.99367, 0.112336, -4.91037e-09, 0, -4.37114e-08, -1, -0.112336, 0.99367, -4.34347e-08, 3.99353, 0.0562524, 2.45378 )
visible = false
emitting = false
lifetime = 0.3
one_shot = true
speed_scale = 5.0
randomness = 1.0
draw_pass_1 = SubResource( 3 )

[node name="Fire3" parent="." instance=ExtResource( 4 )]
transform = Transform( 0.99367, 0.112336, -4.91037e-09, 0, -4.37114e-08, -1, -0.112336, 0.99367, -4.34347e-08, 4.13373, 0.0562524, 2.43793 )
visible = false
emitting = false
lifetime = 0.3
one_shot = true
speed_scale = 5.0
randomness = 1.0
draw_pass_1 = SubResource( 3 )

[node name="AnimationPlayer" type="AnimationPlayer" parent="."]
anims/RESET = SubResource( 5 )
anims/shoot = SubResource( 4 )
