[gd_scene load_steps=3 format=2]

[ext_resource path="res://assets/models/characters/skypelt awkwardhardclaw/Skypelt.glb" type="PackedScene" id=1]

[sub_resource type="Animation" id=1]
resource_name = "idle_land_loop"
length = 4.3
loop = true
tracks/0/type = "transform"
tracks/0/path = NodePath("Armature001/Skeleton:J_Sec_L_Bust2")
tracks/0/interp = 1
tracks/0/loop_wrap = true
tracks/0/imported = false
tracks/0/enabled = true
tracks/0/keys = PoolRealArray( 0, 1, 0, 0, 0, -1.77636e-15, 1.35031e-29, -7.60157e-15, 1, 1, 1, 1, 4.3, 1, -5.96047e-08, 1.49012e-08, 5.96046e-08, -7.45058e-09, 7.45058e-09, -2.23517e-08, 1, 1, 1, 1 )
tracks/1/type = "transform"
tracks/1/path = NodePath("Armature001/Skeleton:Breast_L")
tracks/1/interp = 1
tracks/1/loop_wrap = true
tracks/1/imported = false
tracks/1/enabled = true
tracks/1/keys = PoolRealArray( 0, 1, 0, 0, 0, 8.9407e-08, 2.98023e-08, 1.49012e-08, 1, 1, 1, 1, 4.3, 1, 5.96046e-08, -5.21541e-08, -7.45058e-09, 5.96046e-08, 1.49012e-08, 2.98023e-08, 1, 1, 1, 1 )
tracks/2/type = "transform"
tracks/2/path = NodePath("Armature001/Skeleton:J_Sec_R_Bust2")
tracks/2/interp = 1
tracks/2/loop_wrap = true
tracks/2/imported = false
tracks/2/enabled = true
tracks/2/keys = PoolRealArray( 0, 1, 0, 0, 0, -1.42109e-14, -5.04886e-29, 3.55282e-15, 1, 1, 1, 1, 4.3, 1, -1.42109e-14, -4.47035e-08, 5.96047e-08, 2.98023e-08, 7.45058e-09, 7.45059e-09, 1, 1, 1, 1 )
tracks/3/type = "transform"
tracks/3/path = NodePath("Armature001/Skeleton:Breast_R")
tracks/3/interp = 1
tracks/3/loop_wrap = true
tracks/3/imported = false
tracks/3/enabled = true
tracks/3/keys = PoolRealArray( 0, 1, 0, 0, 0, -5.55112e-16, -3.72529e-08, 1.49012e-08, 1, 1, 1, 1, 4.3, 1, -1.11759e-07, -7.45058e-09, -5.96046e-08, -1.49012e-08, -9.68576e-08, -2.98023e-08, 1, 1, 1, 1 )
tracks/4/type = "transform"
tracks/4/path = NodePath("Armature001/Skeleton:Eye_L")
tracks/4/interp = 1
tracks/4/loop_wrap = true
tracks/4/imported = false
tracks/4/enabled = true
tracks/4/keys = PoolRealArray( 0, 1, 0, 0, 0, -1.65436e-24, -1.86265e-09, 7.45058e-09, 1, 1, 1, 1, 0.0666667, 1, 0, 0, 0, -0.000148565, -1.47537e-05, -2.17404e-06, 1, 1, 1, 1, 0.133333, 1, 0, 0, 0, -0.000445784, -4.42657e-05, -6.51292e-06, 1, 1, 1, 1, 0.2, 1, 0, 0, 0, -0.000742958, -7.37751e-05, -1.08582e-05, 1, 1, 1, 1, 0.266667, 1, 0, 0, 0, -0.00104027, -0.000103289, -1.52098e-05, 0.999999, 1, 1, 1, 0.333333, 1, 0, 0, 0, -0.00133749, -0.000132804, -1.95529e-05, 0.999999, 1, 1, 1, 0.4, 1, 0, 0, 0, -0.00169963, -0.000169083, -2.49414e-05, 0.999999, 1, 1, 1, 0.466667, 1, 0, 0, 0, -0.00211681, -0.000210675, -3.17906e-05, 0.999998, 1, 1, 1, 0.533333, 1, 0, 0, 0, -0.00246573, -0.000246215, -3.74243e-05, 0.999997, 1, 1, 1, 0.6, 1, 0, 0, 0, -0.00274455, -0.000274393, -4.34823e-05, 0.999996, 1, 1, 1, 0.666667, 1, 0, 0, 0, -0.00297531, -0.000299615, -4.64482e-05, 0.999996, 1, 1, 1, 0.8, 1, 0, 0, 0, -0.00319893, -0.000325968, -5.10923e-05, 0.999995, 1, 1, 1, 1.4, 1, 1.86265e-09, 0, 0, -0.00308949, -0.000304116, -4.55762e-05, 0.999995, 1, 1, 1, 1.53333, 1, 1.86265e-09, 0, 0, -0.00266591, -0.000249168, -3.51867e-05, 0.999996, 1, 1, 1, 1.6, 1, 1.86265e-09, 0, 0, -0.00240572, -0.000206605, -2.49276e-05, 0.999997, 1, 1, 1, 1.66667, 1, 1.86265e-09, 0, 0, -0.0021315, -0.000160774, -1.53705e-05, 0.999998, 1, 1, 1, 1.73333, 1, 1.86265e-09, 0, 0, -0.00185067, -0.000117022, -5.92e-06, 0.999998, 1, 1, 1, 1.8, 1, 1.86265e-09, 0, 0, -0.00156762, -7.43527e-05, 3.26229e-06, 0.999999, 1, 1, 1, 1.86667, 1, 1.86265e-09, 0, 0, -0.00128447, -3.16894e-05, 1.24465e-05, 0.999999, 1, 1, 1, 1.93333, 1, 1.86265e-09, 0, 0, -0.00102234, 7.62067e-06, 2.03814e-05, 0.999999, 1, 1, 1, 2, 1, 1.86265e-09, 0, 0, -0.000767903, 4.52904e-05, 2.88387e-05, 1, 1, 1, 1, 2.06667, 1, 1.86265e-09, 0, 0, -0.000556159, 7.74647e-05, 3.51353e-05, 1, 1, 1, 1, 2.2, 1, 1.86265e-09, 0, -3.72529e-09, -0.000219127, 0.000126615, 4.54577e-05, 1, 1, 1, 1, 4.3, 1, 1.86265e-09, 0, -3.72529e-09, 9.55162e-06, 7.70765e-06, 2.73056e-06, 1, 1, 1, 1 )
tracks/5/type = "transform"
tracks/5/path = NodePath("Armature001/Skeleton:Eye_R")
tracks/5/interp = 1
tracks/5/loop_wrap = true
tracks/5/imported = false
tracks/5/enabled = true
tracks/5/keys = PoolRealArray( 0, 1, 0, 0, 0, 1.49012e-08, -6.61744e-24, -3.72529e-09, 1, 1, 1, 1, 4.3, 1, -1.86265e-09, -1.11759e-08, 0, 2.98023e-08, -1.11022e-16, -3.72529e-09, 1, 1, 1, 1 )
tracks/6/type = "transform"
tracks/6/path = NodePath("Armature001/Skeleton:Head")
tracks/6/interp = 1
tracks/6/loop_wrap = true
tracks/6/imported = false
tracks/6/enabled = true
tracks/6/keys = PoolRealArray( 0, 1, 0, 0, 0, -7.45058e-09, 6.98492e-10, -1.45519e-10, 1, 1, 1, 1, 0.0666667, 1, 2.68301e-11, 0, 0, -0.000149269, 1.51344e-07, -2.75678e-08, 1, 1, 1, 1, 0.133333, 1, 8.13998e-11, 0, 9.31323e-10, -0.000447825, 4.62206e-07, -8.26371e-08, 1, 1, 1, 1, 0.2, 1, 1.35515e-10, 0, 1.86265e-09, -0.000746336, 7.65184e-07, -1.36741e-07, 1, 1, 1, 1, 0.266667, 1, 1.8963e-10, 0, 2.79397e-09, -0.00104486, 1.07239e-06, -1.91343e-07, 0.999999, 1, 1, 1, 0.333333, 1, 2.44199e-10, 0, 3.72529e-09, -0.00134342, 1.3745e-06, -2.4443e-07, 0.999999, 1, 1, 1, 0.4, 1, 2.98314e-10, 0, 4.65661e-09, -0.00170851, 1.93129e-06, 2.52003e-08, 0.999999, 1, 1, 1, 0.466667, 1, 3.52429e-10, 0, 5.58794e-09, -0.00212769, 1.84072e-06, 3.47386e-07, 0.999998, 1, 1, 1, 0.533333, 1, 4.06999e-10, 0, 6.51926e-09, -0.00248121, 2.21513e-06, 1.23173e-06, 0.999997, 1, 1, 1, 0.6, 1, 4.61114e-10, 0, 7.45058e-09, -0.00275825, 6.2403e-07, 2.34853e-06, 0.999996, 1, 1, 1, 0.733333, 1, 5.69798e-10, 0, 9.31323e-09, -0.00311687, 2.84196e-06, 6.79326e-06, 0.999995, 1, 1, 1, 1.46667, 1, 1.16688e-09, 0, 1.95578e-08, -0.00289137, 2.10366e-06, -9.59229e-06, 0.999996, 1, 1, 1, 1.53333, 1, 1.221e-09, 0, 2.04891e-08, -0.00267697, 1.82025e-06, -1.62546e-05, 0.999996, 1, 1, 1, 1.6, 1, 1.27511e-09, 0, 2.14204e-08, -0.00241453, 2.46178e-06, -3.41602e-05, 0.999997, 1, 1, 1, 1.66667, 1, 1.32968e-09, 0, 2.23517e-08, -0.00213726, 1.65036e-06, -5.34046e-05, 0.999998, 1, 1, 1, 1.73333, 1, 1.3838e-09, 0, 2.32831e-08, -0.00185322, 1.46288e-06, -6.99821e-05, 0.999998, 1, 1, 1, 1.8, 1, 1.43791e-09, 0, 2.42144e-08, -0.0015674, 1.41587e-06, -8.52793e-05, 0.999999, 1, 1, 1, 1.86667, 1, 1.49248e-09, 0, 2.51457e-08, -0.0012816, 1.36244e-06, -0.00010058, 0.999999, 1, 1, 1, 1.93333, 1, 1.5466e-09, 0, 2.6077e-08, -0.00101722, 8.57358e-07, -0.00011429, 0.999999, 1, 1, 1, 2, 1, 1.60071e-09, 0, 2.70084e-08, -0.000761282, 1.30033e-06, -0.000127498, 1, 1, 1, 1, 2.13333, 1, 1.7094e-09, 0, 2.8871e-08, -0.000350114, 1.91129e-07, -0.000149557, 1, 1, 1, 1, 2.26667, 1, 1.81853e-09, 7.45058e-09, 3.1665e-08, -9.74647e-05, 2.7361e-07, -0.000160401, 1, 1, 1, 1, 4.3, 1, 3.47382e-09, 7.45058e-09, 5.96046e-08, 9.46969e-06, 3.82241e-07, -7.04594e-06, 1, 1, 1, 1 )
tracks/7/type = "transform"
tracks/7/path = NodePath("Armature001/Skeleton:Neck")
tracks/7/interp = 1
tracks/7/loop_wrap = true
tracks/7/imported = false
tracks/7/enabled = true
tracks/7/keys = PoolRealArray( 0, 1, 0, 0, 0, -1.49012e-08, 1.04083e-17, -6.98492e-10, 1, 1, 1, 1, 0.0666667, 1, 5.82077e-11, 0, 0, -0.000149339, 1.54023e-07, -3.54837e-08, 1, 1, 1, 1, 0.133333, 1, 1.45519e-10, 0, 0, -0.000447959, 4.52551e-07, -9.95652e-08, 1, 1, 1, 1, 0.2, 1, 2.32831e-10, 0, 0, -0.000746519, 7.57404e-07, -1.63289e-07, 1, 1, 1, 1, 0.266667, 1, 3.49246e-10, 0, -7.45058e-09, -0.00104508, 1.05776e-06, -2.28699e-07, 0.999999, 1, 1, 1, 0.333333, 1, 4.36557e-10, 0, -7.45058e-09, -0.00134367, 1.36222e-06, -2.93108e-07, 0.999999, 1, 1, 1, 0.4, 1, 5.23869e-10, 0, -7.45058e-09, -0.00170853, 1.89595e-06, -2.09277e-07, 0.999999, 1, 1, 1, 0.466667, 1, 6.40284e-10, 0, -1.49012e-08, -0.00212768, 1.81469e-06, 1.0619e-07, 0.999998, 1, 1, 1, 0.533333, 1, 7.27596e-10, 0, -1.49012e-08, -0.00248071, 2.25632e-06, 7.23417e-07, 0.999997, 1, 1, 1, 0.6, 1, 8.14907e-10, 0, -1.49012e-08, -0.00275831, 8.71967e-07, 2.23206e-06, 0.999996, 1, 1, 1, 0.733333, 1, 1.01863e-09, 0, -2.23517e-08, -0.00311637, 3.52058e-06, 6.14737e-06, 0.999995, 1, 1, 1, 1.46667, 1, 2.03727e-09, -2.98023e-08, -3.72529e-08, -0.00289155, 1.00642e-06, -9.86525e-06, 0.999996, 1, 1, 1, 1.53333, 1, 2.12458e-09, -2.98023e-08, -3.72529e-08, -0.00267729, -2.06445e-08, -1.64219e-05, 0.999996, 1, 1, 1, 1.6, 1, 2.21189e-09, -2.98023e-08, -4.47035e-08, -0.00241468, -1.49194e-06, -3.42001e-05, 0.999997, 1, 1, 1, 1.66667, 1, 2.32831e-09, -2.98023e-08, -4.47035e-08, -0.00213737, -4.50762e-06, -5.32642e-05, 0.999998, 1, 1, 1, 1.73333, 1, 2.41562e-09, -2.98023e-08, -4.47035e-08, -0.00185334, -6.60812e-06, -6.97113e-05, 0.999998, 1, 1, 1, 1.8, 1, 2.50293e-09, -5.96046e-08, -5.21541e-08, -0.00156749, -8.42673e-06, -8.4894e-05, 0.999999, 1, 1, 1, 1.86667, 1, 2.61934e-09, -5.96046e-08, -5.21541e-08, -0.00128162, -1.02367e-05, -0.000100081, 0.999999, 1, 1, 1, 1.93333, 1, 2.70666e-09, -5.96046e-08, -5.21541e-08, -0.00101713, -1.23342e-05, -0.000113743, 0.999999, 1, 1, 1, 2, 1, 2.79397e-09, -5.96046e-08, -5.96046e-08, -0.000760915, -1.34366e-05, -0.000126967, 1, 1, 1, 1, 2.13333, 1, 2.99769e-09, -5.96046e-08, -5.96046e-08, -0.000349867, -1.70633e-05, -0.000148756, 1, 1, 1, 1, 2.26667, 1, 3.17232e-09, -5.96046e-08, -6.70552e-08, -9.70989e-05, -1.82285e-05, -0.000159526, 1, 1, 1, 1, 4.3, 1, 6.0827e-09, -8.9407e-08, -1.2666e-07, 9.59635e-06, -4.87035e-07, -7.20878e-06, 1, 1, 1, 1 )
tracks/8/type = "transform"
tracks/8/path = NodePath("Armature001/Skeleton:IndexFinger3_L")
tracks/8/interp = 1
tracks/8/loop_wrap = true
tracks/8/imported = false
tracks/8/enabled = true
tracks/8/keys = PoolRealArray( 0, 1, 0, 0, 0, -7.45058e-09, -2.32831e-10, 8.14907e-10, 1, 1, 1, 1, 4.3, 1, 5.95464e-08, -1.86265e-09, 0, -1.49012e-08, 8.61474e-09, -2.26428e-08, 1, 1, 1, 1 )
tracks/9/type = "transform"
tracks/9/path = NodePath("Armature001/Skeleton:IndexFinger2_L")
tracks/9/interp = 1
tracks/9/loop_wrap = true
tracks/9/imported = false
tracks/9/enabled = true
tracks/9/keys = PoolRealArray( 0, 1, 0, 0, 0, -4.47035e-08, 4.42378e-09, -2.03727e-09, 1, 1, 1, 1, 4.3, 1, 3.23635e-08, 1.86265e-08, 8.19564e-08, -4.47035e-08, 3.84171e-09, 3.66708e-09, 1, 1, 1, 1 )
tracks/10/type = "transform"
tracks/10/path = NodePath("Armature001/Skeleton:IndexFinger1_L")
tracks/10/interp = 1
tracks/10/loop_wrap = true
tracks/10/imported = false
tracks/10/enabled = true
tracks/10/keys = PoolRealArray( 0, 1, 0, 0, 0, -1.49012e-08, 1.02445e-08, -1.86265e-09, 1, 1, 1, 1, 4.3, 1, -9.49949e-08, 5.96046e-08, -1.11759e-07, -1.15805e-23, -6.51926e-09, -2.42144e-08, 1, 1, 1, 1 )
tracks/11/type = "transform"
tracks/11/path = NodePath("Armature001/Skeleton:LittleFinger3_L")
tracks/11/interp = 1
tracks/11/loop_wrap = true
tracks/11/imported = false
tracks/11/enabled = true
tracks/11/keys = PoolRealArray( 0, 1, 0, 0, 0, 1.49012e-08, -4.65661e-10, 9.31322e-10, 1, 1, 1, 1, 4.3, 1, 1.17929e-07, 1.30385e-08, -1.88127e-07, 7.45058e-08, -1.49012e-08, 2.07219e-08, 1, 1, 1, 1 )
tracks/12/type = "transform"
tracks/12/path = NodePath("Armature001/Skeleton:LittleFinger2_L")
tracks/12/interp = 1
tracks/12/loop_wrap = true
tracks/12/imported = false
tracks/12/enabled = true
tracks/12/keys = PoolRealArray( 0, 1, 0, 0, 0, 1.3417e-18, -6.98492e-10, 6.40284e-10, 1, 1, 1, 1, 4.3, 1, -5.76256e-08, 8.56817e-08, 1.46218e-07, -4.47035e-08, -2.77068e-08, 7.15954e-09, 1, 1, 1, 1 )
tracks/13/type = "transform"
tracks/13/path = NodePath("Armature001/Skeleton:LittleFinger1_L")
tracks/13/interp = 1
tracks/13/loop_wrap = true
tracks/13/imported = false
tracks/13/enabled = true
tracks/13/keys = PoolRealArray( 0, 1, 0, 0, 0, -4.47035e-08, 5.58794e-09, 1.21072e-08, 1, 1, 1, 1, 4.3, 1, -8.9407e-08, 7.45058e-09, 3.72529e-09, -2.98023e-08, 3.25963e-08, -1.67638e-08, 1, 1, 1, 1 )
tracks/14/type = "transform"
tracks/14/path = NodePath("Armature001/Skeleton:MiddleFinger3_L")
tracks/14/interp = 1
tracks/14/loop_wrap = true
tracks/14/imported = false
tracks/14/enabled = true
tracks/14/keys = PoolRealArray( 0, 1, 0, 0, 0, 0, -5.6798e-27, -1.74623e-09, 1, 1, 1, 1, 4.3, 1, 5.92554e-08, -1.49012e-08, 2.79397e-08, 1.49012e-08, 9.31322e-09, 1.16415e-10, 1, 1, 1, 1 )
tracks/15/type = "transform"
tracks/15/path = NodePath("Armature001/Skeleton:MiddleFinger2_L")
tracks/15/interp = 1
tracks/15/loop_wrap = true
tracks/15/imported = false
tracks/15/enabled = true
tracks/15/keys = PoolRealArray( 0, 1, 0, 0, 0, 1.49012e-08, 3.46945e-17, 1.39698e-09, 1, 1, 1, 1, 4.3, 1, -5.96046e-08, 7.45058e-09, 0, 1.49012e-08, 1.11759e-08, 2.93367e-08, 1, 1, 1, 1 )
tracks/16/type = "transform"
tracks/16/path = NodePath("Armature001/Skeleton:MiddleFinger1_L")
tracks/16/interp = 1
tracks/16/loop_wrap = true
tracks/16/imported = false
tracks/16/enabled = true
tracks/16/keys = PoolRealArray( 0, 1, 0, 0, 0, 2.98023e-08, 3.72529e-09, -3.72529e-09, 1, 1, 1, 1, 4.3, 1, 5.68107e-08, -2.98023e-08, -2.6077e-08, -1.45717e-16, 2.6077e-08, 5.58794e-09, 1, 1, 1, 1 )
tracks/17/type = "transform"
tracks/17/path = NodePath("Armature001/Skeleton:RingFinger3_L")
tracks/17/interp = 1
tracks/17/loop_wrap = true
tracks/17/imported = false
tracks/17/enabled = true
tracks/17/keys = PoolRealArray( 0, 1, 0, 0, 0, 1.49012e-08, -4.16334e-17, -2.67755e-09, 1, 1, 1, 1, 4.3, 1, 2.75904e-08, -3.91155e-08, -7.54371e-08, 1.49012e-08, -2.09548e-08, -1.59489e-08, 1, 1, 1, 1 )
tracks/18/type = "transform"
tracks/18/path = NodePath("Armature001/Skeleton:RingFinger2_L")
tracks/18/interp = 1
tracks/18/loop_wrap = true
tracks/18/imported = false
tracks/18/enabled = true
tracks/18/keys = PoolRealArray( 0, 1, 0, 0, 0, -1.49012e-08, 4.65661e-10, 2.09548e-09, 1, 1, 1, 1, 4.3, 1, 1.19559e-07, 1.49012e-08, -5.68107e-08, 1.49012e-08, 9.31323e-09, 1.234e-08, 1, 1, 1, 1 )
tracks/19/type = "transform"
tracks/19/path = NodePath("Armature001/Skeleton:RingFinger1_L")
tracks/19/interp = 1
tracks/19/loop_wrap = true
tracks/19/imported = false
tracks/19/enabled = true
tracks/19/keys = PoolRealArray( 0, 1, 0, 0, 0, 2.98023e-08, 9.31322e-10, -4.65661e-09, 1, 1, 1, 1, 4.3, 1, 2.98023e-08, 2.23517e-08, -1.2666e-07, 2.98023e-08, -9.31323e-10, -3.44589e-08, 1, 1, 1, 1 )
tracks/20/type = "transform"
tracks/20/path = NodePath("Armature001/Skeleton:Thumb2_L")
tracks/20/interp = 1
tracks/20/loop_wrap = true
tracks/20/imported = false
tracks/20/enabled = true
tracks/20/keys = PoolRealArray( 0, 1, 0, 0, 0, 4.68375e-17, 3.72529e-09, -6.98492e-09, 1, 1, 1, 1, 4.3, 1, 1.08033e-07, -5.40167e-08, 1.20141e-07, -1.49012e-08, -1.11759e-08, 3.63216e-08, 1, 1, 1, 1 )
tracks/21/type = "transform"
tracks/21/path = NodePath("Armature001/Skeleton:Thumb1_L")
tracks/21/interp = 1
tracks/21/loop_wrap = true
tracks/21/imported = false
tracks/21/enabled = true
tracks/21/keys = PoolRealArray( 0, 1, 0, 0, 0, -4.16334e-17, 2.23517e-08, 9.31322e-09, 1, 1, 1, 1, 4.3, 1, -3.25963e-08, -2.98023e-08, -1.67638e-08, 2.22045e-16, 7.45058e-09, -1.49012e-08, 1, 1, 1, 1 )
tracks/22/type = "transform"
tracks/22/path = NodePath("Armature001/Skeleton:Thumb0_L")
tracks/22/interp = 1
tracks/22/loop_wrap = true
tracks/22/imported = false
tracks/22/enabled = true
tracks/22/keys = PoolRealArray( 0, 1, 0, 0, 0, -7.45058e-09, -2.35922e-16, 3.1665e-08, 1, 1, 1, 1, 4.3, 1, 1.20141e-07, 2.8871e-08, 5.96046e-08, 7.45058e-09, 2.35922e-16, 3.1665e-08, 1, 1, 1, 1 )
tracks/23/type = "transform"
tracks/23/path = NodePath("Armature001/Skeleton:Left wrist")
tracks/23/interp = 1
tracks/23/loop_wrap = true
tracks/23/imported = false
tracks/23/enabled = true
tracks/23/keys = PoolRealArray( 0, 1, 0, 0, 0, -1.49012e-08, -5.55112e-17, 3.72529e-09, 1, 1, 1, 1, 0.0666667, 1, 0, 0, 0, -2.69916e-05, 0.000187556, 0.000188792, 1, 1, 1, 1, 0.4, 1, 5.58794e-09, -1.49012e-08, -7.45058e-09, -0.000354819, 0.0021999, 0.00210929, 0.999995, 1, 1, 1, 0.466667, 1, 5.58794e-09, -1.49012e-08, -7.45058e-09, -0.000546141, 0.00285997, 0.00250675, 0.999993, 1, 1, 1, 0.533333, 1, 7.45058e-09, -1.49012e-08, -7.45058e-09, -0.000807022, 0.00353273, 0.00273022, 0.99999, 1, 1, 1, 0.6, 1, 9.31323e-09, -1.49012e-08, -7.45058e-09, -0.00135339, 0.00459238, 0.0023033, 0.999986, 1, 1, 1, 0.666667, 1, 1.11759e-08, -1.49012e-08, -7.45058e-09, -0.00185446, 0.00558275, 0.00168171, 0.999981, 1, 1, 1, 0.733333, 1, 1.11759e-08, -1.49012e-08, -7.45058e-09, -0.00216345, 0.00602863, 0.00101405, 0.999979, 1, 1, 1, 0.8, 1, 1.11759e-08, -1.49012e-08, -7.45058e-09, -0.00265133, 0.00665996, 4.9961e-05, 0.999974, 1, 1, 1, 0.866667, 1, 1.30385e-08, -1.49012e-08, -1.49012e-08, -0.00305041, 0.00709198, -0.00092026, 0.99997, 1, 1, 1, 0.933333, 1, 1.49012e-08, -1.49012e-08, -1.49012e-08, -0.00362872, 0.00775952, -0.00218922, 0.999961, 1, 1, 1, 1, 1, 1.67638e-08, -1.49012e-08, -1.49012e-08, -0.00407793, 0.00803848, -0.00312201, 0.999955, 1, 1, 1, 1.06667, 1, 1.67638e-08, -1.49012e-08, -7.45058e-09, -0.00415838, 0.0078545, -0.00406784, 0.999952, 1, 1, 1, 1.13333, 1, 1.67638e-08, -1.49012e-08, -7.45058e-09, -0.00410557, 0.00756862, -0.00507545, 0.99995, 1, 1, 1, 1.2, 1, 2.04891e-08, -1.49012e-08, -7.45058e-09, -0.00302672, 0.00616722, -0.00575884, 0.99996, 1, 1, 1, 1.26667, 1, 2.04891e-08, -1.49012e-08, -7.45058e-09, -0.00164652, 0.00443217, -0.00627524, 0.999969, 1, 1, 1, 1.33333, 1, 2.23517e-08, -1.49012e-08, -7.45058e-09, 0.000182565, 0.00206678, -0.00655325, 0.999976, 1, 1, 1, 1.4, 1, 2.23517e-08, -1.49012e-08, -1.49012e-08, 0.0020242, -0.000667283, -0.0063132, 0.999978, 1, 1, 1, 1.53333, 1, 2.6077e-08, -1.49012e-08, -1.49012e-08, 0.00573231, -0.00687273, -0.00479684, 0.999948, 1, 1, 1, 1.6, 1, 2.6077e-08, -1.49012e-08, -1.49012e-08, 0.00662618, -0.00890008, -0.00370947, 0.999932, 1, 1, 1, 1.66667, 1, 2.79397e-08, -1.49012e-08, -1.49012e-08, 0.00688391, -0.00982637, -0.00330831, 0.999923, 1, 1, 1, 1.73333, 1, 2.98023e-08, -1.49012e-08, -1.49012e-08, 0.00720579, -0.0110085, -0.00240021, 0.999911, 1, 1, 1, 1.86667, 1, 3.1665e-08, -1.49012e-08, -1.49012e-08, 0.00826742, -0.0141868, 0.000640428, 0.999865, 1, 1, 1, 1.93333, 1, 3.1665e-08, -1.49012e-08, -1.49012e-08, 0.00741184, -0.0135159, 0.00106218, 0.999881, 1, 1, 1, 2, 1, 3.53903e-08, -1.49012e-08, -2.23517e-08, 0.00628916, -0.012549, 0.00131728, 0.999901, 1, 1, 1, 2.06667, 1, 3.53903e-08, -1.49012e-08, -2.23517e-08, 0.0051376, -0.0114331, 0.00173785, 0.99992, 1, 1, 1, 2.13333, 1, 3.72529e-08, -1.49012e-08, -2.23517e-08, 0.00417858, -0.0105691, 0.00233314, 0.999933, 1, 1, 1, 2.2, 1, 3.72529e-08, -1.49012e-08, -2.23517e-08, 0.00343906, -0.00989365, 0.00302115, 0.999941, 1, 1, 1, 2.26667, 1, 3.91155e-08, -1.49012e-08, -2.23517e-08, 0.00271198, -0.00910209, 0.00348243, 0.999949, 1, 1, 1, 2.33333, 1, 4.09782e-08, -1.49012e-08, -2.23517e-08, 0.00199201, -0.00818675, 0.00376045, 0.999957, 1, 1, 1, 2.4, 1, 4.09782e-08, -1.49012e-08, -2.23517e-08, 0.00102418, -0.00689931, 0.00382169, 0.999968, 1, 1, 1, 2.8, 1, 4.84288e-08, -1.49012e-08, -2.23517e-08, -0.00449322, -0.000488136, 0.00469788, 0.999979, 1, 1, 1, 2.86667, 1, 5.02914e-08, -1.49012e-08, -2.23517e-08, -0.00515857, 9.00018e-05, 0.00453289, 0.999977, 1, 1, 1, 2.93333, 1, 5.02914e-08, -1.49012e-08, -2.23517e-08, -0.00559669, 0.000260745, 0.00409784, 0.999976, 1, 1, 1, 3.26667, 1, 5.7742e-08, -1.49012e-08, -2.98023e-08, -0.00778699, 0.00111471, 0.00192228, 0.999967, 1, 1, 1, 3.8, 1, 6.70552e-08, -1.49012e-08, -3.72529e-08, -0.00574029, -0.000378962, 0.000117472, 0.999984, 1, 1, 1, 3.86667, 1, 6.70552e-08, -1.49012e-08, -2.98023e-08, -0.00501893, -0.000292815, 8.67911e-05, 0.999987, 1, 1, 1, 4.3, 1, 7.63685e-08, -1.49012e-08, -3.72529e-08, -0.000330008, 0.000266664, -0.000112528, 1, 1, 1, 1 )
tracks/24/type = "transform"
tracks/24/path = NodePath("Armature001/Skeleton:Left elbow")
tracks/24/interp = 1
tracks/24/loop_wrap = true
tracks/24/imported = false
tracks/24/enabled = true
tracks/24/keys = PoolRealArray( 0, 1, 0, 0, 0, -1.86265e-09, -1.32706e-16, -2.37487e-08, 1, 1, 1, 1, 0.0666667, 1, 0, 0, 0, -2.63556e-06, -0.000203361, -0.000888052, 1, 1, 1, 1, 0.533333, 1, 0, 0, 0, -4.3932e-05, -0.00333158, -0.0145459, 0.999889, 1, 1, 1, 0.6, 1, 0, 0, 0, -4.70006e-05, -0.00357464, -0.0156082, 0.999872, 1, 1, 1, 0.666667, 1, 0, 0, 0, -4.83646e-05, -0.00367156, -0.0160302, 0.999865, 1, 1, 1, 0.733333, 1, 0, 0, 0, -4.56565e-05, -0.00347347, -0.0151665, 0.999879, 1, 1, 1, 0.8, 1, 0, 0, 0, -4.21617e-05, -0.00320066, -0.0139745, 0.999897, 1, 1, 1, 1, 1, 0, 0, 0, -2.66811e-05, -0.00203818, -0.00889907, 0.999958, 1, 1, 1, 1.13333, 1, 0, 0, 0, -9.40424e-06, -0.000703175, -0.00306962, 0.999995, 1, 1, 1, 1.53333, 1, 0, 0, 0, 6.96321e-05, 0.00528777, 0.0230872, 0.99972, 1, 1, 1, 1.6, 1, 0, 0, 0, 7.40596e-05, 0.0056519, 0.0246767, 0.99968, 1, 1, 1, 1.66667, 1, 0, 0, 0, 7.74281e-05, 0.00590535, 0.0257842, 0.99965, 1, 1, 1, 1.86667, 1, 0, 0, 0, 7.64065e-05, 0.00582919, 0.0254517, 0.999659, 1, 1, 1, 2, 1, 0, 0, 0, 6.11787e-05, 0.00467769, 0.0204224, 0.999781, 1, 1, 1, 2.8, 1, 0, 0, 1.86265e-09, -4.22896e-05, -0.00321789, -0.0140495, 0.999896, 1, 1, 1, 2.86667, 1, 0, 0, 1.86265e-09, -4.5089e-05, -0.00342697, -0.0149622, 0.999882, 1, 1, 1, 2.93333, 1, 0, 0, 1.86265e-09, -4.31894e-05, -0.00328055, -0.0143233, 0.999892, 1, 1, 1, 3, 1, 0, 0, 1.86265e-09, -4.12577e-05, -0.00313417, -0.0136843, 0.999901, 1, 1, 1, 3.06667, 1, 0, 0, 1.86265e-09, -3.93183e-05, -0.00298777, -0.0130451, 0.999911, 1, 1, 1, 3.26667, 1, 0, 0, 1.86265e-09, -3.36022e-05, -0.00254864, -0.0111283, 0.999935, 1, 1, 1, 3.8, 1, 0, -1.49012e-08, 1.86265e-09, -4.8502e-06, -0.00036715, -0.00160273, 0.999999, 1, 1, 1, 3.93333, 1, 0, -1.49012e-08, 1.86265e-09, -3.76298e-06, -0.000282604, -0.00123401, 0.999999, 1, 1, 1, 4.06667, 1, 0, -1.49012e-08, 1.86265e-09, -2.65426e-06, -0.000198057, -0.000865176, 1, 1, 1, 1, 4.13333, 1, 0, -1.49012e-08, 1.86265e-09, -2.09352e-06, -0.000155827, -0.000680757, 1, 1, 1, 1, 4.2, 1, 0, -1.49012e-08, 1.86265e-09, -1.55395e-06, -0.000113568, -0.000496415, 1, 1, 1, 1, 4.3, 1, 0, -1.49012e-08, 1.86265e-09, -7.26274e-07, -5.01348e-05, -0.000219705, 1, 1, 1, 1 )
tracks/25/type = "transform"
tracks/25/path = NodePath("Armature001/Skeleton:Left arm")
tracks/25/interp = 1
tracks/25/loop_wrap = true
tracks/25/imported = false
tracks/25/enabled = true
tracks/25/keys = PoolRealArray( 0, 1, 0, 0, 0, 5.96046e-08, 7.45058e-09, 4.84288e-08, 1, 1, 1, 1, 0.0666667, 1, 0, 0, 0, 0.000307178, -3.86503e-05, -0.00025586, 1, 1, 1, 1, 0.4, 1, -7.45058e-09, 7.45058e-09, -7.45058e-09, 0.00348599, -0.000485388, -0.00287252, 0.99999, 1, 1, 1, 0.466667, 1, -7.45058e-09, 7.45058e-09, -1.49012e-08, 0.00427179, -0.000701812, -0.00344677, 0.999985, 1, 1, 1, 0.533333, 1, -1.11759e-08, 7.45058e-09, -1.49012e-08, 0.00487194, -0.000979485, -0.003809, 0.99998, 1, 1, 1, 0.6, 1, -1.11759e-08, 7.45058e-09, -1.49012e-08, 0.00473987, -0.00173885, -0.00404863, 0.999979, 1, 1, 1, 0.666667, 1, -1.11759e-08, 7.45058e-09, -1.49012e-08, 0.00422584, -0.00256148, -0.00436095, 0.999978, 1, 1, 1, 0.733333, 1, -1.49012e-08, 7.45058e-09, -1.49012e-08, 0.00351077, -0.00297623, -0.00437653, 0.99998, 1, 1, 1, 0.8, 1, -1.49012e-08, 1.49012e-08, -2.23517e-08, 0.00253195, -0.00366841, -0.00422801, 0.999981, 1, 1, 1, 0.866667, 1, -1.49012e-08, 1.49012e-08, -2.23517e-08, 0.0014737, -0.00423117, -0.00413887, 0.999981, 1, 1, 1, 0.933333, 1, -1.49012e-08, 1.49012e-08, -2.23517e-08, 0.00015211, -0.00521618, -0.00368016, 0.99998, 1, 1, 1, 1, 1, -1.86265e-08, 1.49012e-08, -2.23517e-08, -0.000695574, -0.00554473, -0.00328454, 0.999979, 1, 1, 1, 1.06667, 1, -1.86265e-08, 1.49012e-08, -2.23517e-08, -0.00192481, -0.00530981, -0.00398069, 0.999976, 1, 1, 1, 1.13333, 1, -2.23517e-08, 1.49012e-08, -2.98023e-08, -0.00344375, -0.00503966, -0.00490552, 0.999969, 1, 1, 1, 1.26667, 1, -2.6077e-08, 7.45058e-09, -2.98023e-08, -0.00833893, -0.00275301, -0.00901007, 0.999921, 1, 1, 1, 1.33333, 1, -2.6077e-08, 1.49012e-08, -2.98023e-08, -0.0109735, -0.00107303, -0.0115434, 0.999873, 1, 1, 1, 1.4, 1, -2.6077e-08, 1.49012e-08, -2.98023e-08, -0.0125989, 0.00127228, -0.0139733, 0.999822, 1, 1, 1, 1.53333, 1, -2.98023e-08, 1.49012e-08, -3.72529e-08, -0.0138303, 0.00729366, -0.0186262, 0.999704, 1, 1, 1, 1.6, 1, -2.98023e-08, 1.49012e-08, -3.72529e-08, -0.0127028, 0.00940637, -0.0191689, 0.999691, 1, 1, 1, 1.66667, 1, -2.98023e-08, 1.49012e-08, -3.72529e-08, -0.0119749, 0.0102535, -0.0192511, 0.99969, 1, 1, 1, 1.73333, 1, -3.35276e-08, 1.49012e-08, -3.72529e-08, -0.0102949, 0.0116103, -0.0193232, 0.999693, 1, 1, 1, 1.86667, 1, -3.35276e-08, 2.23517e-08, -4.47035e-08, -0.00518634, 0.015408, -0.0191537, 0.999684, 1, 1, 1, 2, 1, -4.09782e-08, 2.23517e-08, -4.47035e-08, -0.000133628, 0.0136807, -0.0157873, 0.999782, 1, 1, 1, 2.06667, 1, -4.09782e-08, 2.23517e-08, -4.47035e-08, 0.00268938, 0.0125915, -0.0140263, 0.999819, 1, 1, 1, 2.2, 1, -4.47035e-08, 2.23517e-08, -5.21541e-08, 0.00826343, 0.0108848, -0.0111001, 0.999845, 1, 1, 1, 2.26667, 1, -4.47035e-08, 2.23517e-08, -5.21541e-08, 0.0104065, 0.00970725, -0.0100197, 0.999849, 1, 1, 1, 2.33333, 1, -4.47035e-08, 2.98023e-08, -5.21541e-08, 0.0121181, 0.00831811, -0.00912887, 0.99985, 1, 1, 1, 2.4, 1, -4.84288e-08, 2.98023e-08, -5.21541e-08, 0.0136807, 0.006606, -0.00815621, 0.999851, 1, 1, 1, 2.8, 1, -5.58794e-08, 2.23517e-08, -5.96046e-08, 0.0240746, -0.00192913, -0.00412505, 0.9997, 1, 1, 1, 2.86667, 1, -5.96046e-08, 2.98023e-08, -6.70552e-08, 0.0252026, -0.00292269, -0.00384647, 0.999671, 1, 1, 1, 3.26667, 1, -6.33299e-08, 2.98023e-08, -7.45058e-08, 0.0287109, -0.00664409, -0.00405217, 0.999558, 1, 1, 1, 3.8, 1, -7.45058e-08, 3.72529e-08, -8.19564e-08, 0.022012, -0.00583198, -0.00400483, 0.999733, 1, 1, 1, 4.3, 1, -8.56817e-08, 3.72529e-08, -9.68575e-08, 0.000576123, -0.00050766, 0.000233712, 1, 1, 1, 1 )
tracks/26/type = "transform"
tracks/26/path = NodePath("Armature001/Skeleton:Left shoulder")
tracks/26/interp = 1
tracks/26/loop_wrap = true
tracks/26/imported = false
tracks/26/enabled = true
tracks/26/keys = PoolRealArray( 0, 1, 0, 0, 0, 7.45058e-09, 3.72529e-08, 1.49012e-08, 1, 1, 1, 1, 0.0666667, 1, 0, 0, 0, -9.45785e-05, -4.8229e-05, 0.000330026, 1, 1, 1, 1, 0.133333, 1, 0, 3.72529e-09, 0, -0.000283743, -0.00014483, 0.000990007, 0.999999, 1, 1, 1, 0.333333, 1, 1.86265e-09, 0, 1.49012e-08, -0.000851242, -0.000434567, 0.00297012, 0.999995, 1, 1, 1, 0.466667, 1, -1.86265e-09, 0, 2.98023e-08, -0.00146294, -0.000704974, 0.00465937, 0.999988, 1, 1, 1, 0.533333, 1, -1.86265e-09, 0, 2.98023e-08, -0.00182757, -0.000840572, 0.00538848, 0.999984, 1, 1, 1, 0.6, 1, 0, 0, 2.98023e-08, -0.00210892, -0.000967106, 0.00609434, 0.999979, 1, 1, 1, 0.666667, 1, 0, 0, 2.98023e-08, -0.0021598, -0.00104875, 0.00675401, 0.999974, 1, 1, 1, 0.733333, 1, -3.72529e-09, -3.72529e-09, 4.47035e-08, -0.00213174, -0.00107275, 0.00695619, 0.999973, 1, 1, 1, 0.866667, 1, -3.72529e-09, -3.72529e-09, 4.47035e-08, -0.00188823, -0.00107728, 0.00712067, 0.999972, 1, 1, 1, 1, 1, -3.72529e-09, -3.72529e-09, 5.96046e-08, -0.00171994, -0.00107346, 0.00673687, 0.999975, 1, 1, 1, 1.06667, 1, -1.86265e-09, -3.72529e-09, 5.96046e-08, -0.00137609, -0.00109, 0.00716934, 0.999973, 1, 1, 1, 1.13333, 1, -1.86265e-09, -3.72529e-09, 5.96046e-08, -0.000750599, -0.00106947, 0.00770917, 0.999969, 1, 1, 1, 1.2, 1, -1.86265e-09, -3.72529e-09, 5.96046e-08, 0.00124992, -0.00081051, 0.00848375, 0.999963, 1, 1, 1, 1.4, 1, -3.72529e-09, -1.11759e-08, 7.45058e-08, 0.00837994, 0.000294989, 0.0105955, 0.999909, 1, 1, 1, 1.53333, 1, -3.72529e-09, -1.11759e-08, 7.45058e-08, 0.0110607, 0.000823151, 0.0116865, 0.99987, 1, 1, 1, 1.6, 1, -3.72529e-09, -1.11759e-08, 7.45058e-08, 0.0107235, 0.000990196, 0.0113262, 0.999878, 1, 1, 1, 1.66667, 1, -3.72529e-09, -1.11759e-08, 7.45058e-08, 0.0102026, 0.00101621, 0.0109033, 0.999888, 1, 1, 1, 1.73333, 1, -3.72529e-09, -1.11759e-08, 7.45058e-08, 0.00910679, 0.000919352, 0.0104921, 0.999903, 1, 1, 1, 1.86667, 1, -3.72529e-09, -1.86265e-08, 8.9407e-08, 0.00614565, 0.000648395, 0.00931268, 0.999938, 1, 1, 1, 1.93333, 1, -1.86265e-09, -1.86265e-08, 8.9407e-08, 0.00402265, 0.00040397, 0.00832843, 0.999957, 1, 1, 1, 2.13333, 1, -5.58794e-09, -1.86265e-08, 1.04308e-07, -0.00267783, -0.000423222, 0.00582546, 0.999979, 1, 1, 1, 2.26667, 1, -5.58794e-09, -1.86265e-08, 1.04308e-07, -0.00569006, -0.000685463, 0.00428301, 0.999974, 1, 1, 1, 2.33333, 1, -3.72529e-09, -2.6077e-08, 1.19209e-07, -0.00674229, -0.000804529, 0.00366632, 0.99997, 1, 1, 1, 2.4, 1, -7.45058e-09, -2.23517e-08, 1.19209e-07, -0.00789468, -0.00100193, 0.00307213, 0.999964, 1, 1, 1, 2.53333, 1, -7.45058e-09, -2.23517e-08, 1.19209e-07, -0.0104189, -0.00143022, 0.00226901, 0.999942, 1, 1, 1, 2.66667, 1, -7.45058e-09, -2.23517e-08, 1.3411e-07, -0.0129489, -0.00178625, 0.00121376, 0.999914, 1, 1, 1, 2.86667, 1, -9.31323e-09, -2.6077e-08, 1.49012e-07, -0.0163484, -0.00228931, -0.000151776, 0.999864, 1, 1, 1, 3.26667, 1, -7.45058e-09, -2.6077e-08, 1.63913e-07, -0.020655, -0.00306891, -0.00243707, 0.999779, 1, 1, 1, 3.33333, 1, -7.45058e-09, -2.6077e-08, 1.63913e-07, -0.0201298, -0.00295383, -0.00255576, 0.99979, 1, 1, 1, 3.8, 1, -9.31323e-09, -4.09782e-08, 1.93715e-07, -0.0164533, -0.00214882, -0.00338667, 0.999857, 1, 1, 1, 4.3, 1, -1.11759e-08, -4.47035e-08, 2.23517e-07, -0.000530871, -3.65462e-05, -0.000278626, 1, 1, 1, 1 )
tracks/27/type = "transform"
tracks/27/path = NodePath("Armature001/Skeleton:IndexFinger3_R")
tracks/27/interp = 1
tracks/27/loop_wrap = true
tracks/27/imported = false
tracks/27/enabled = true
tracks/27/keys = PoolRealArray( 0, 1, 0, 0, 0, 1.49012e-08, 1.38778e-17, 1.04774e-09, 1, 1, 1, 1, 4.3, 1, -5.36675e-08, -1.21072e-07, -1.25729e-08, -2.98023e-08, -5.58794e-09, 1.35042e-08, 1, 1, 1, 1 )
tracks/28/type = "transform"
tracks/28/path = NodePath("Armature001/Skeleton:IndexFinger2_R")
tracks/28/interp = 1
tracks/28/loop_wrap = true
tracks/28/imported = false
tracks/28/enabled = true
tracks/28/keys = PoolRealArray( 0, 1, 0, 0, 0, -1.49146e-17, 3.60888e-09, -2.03727e-09, 1, 1, 1, 1, 4.3, 1, 2.81725e-08, 3.53903e-08, -4.84288e-08, 5.96047e-08, 1.39698e-09, -1.50758e-08, 1, 1, 1, 1 )
tracks/29/type = "transform"
tracks/29/path = NodePath("Armature001/Skeleton:IndexFinger1_R")
tracks/29/interp = 1
tracks/29/loop_wrap = true
tracks/29/imported = false
tracks/29/enabled = true
tracks/29/keys = PoolRealArray( 0, 1, 0, 0, 0, -4.47035e-08, 1.86265e-09, -7.45058e-09, 1, 1, 1, 1, 4.3, 1, 5.58794e-08, 2.98023e-08, 2.6077e-08, -5.96046e-08, 5.58793e-09, 1.11759e-08, 1, 1, 1, 1 )
tracks/30/type = "transform"
tracks/30/path = NodePath("Armature001/Skeleton:LittleFinger3_R")
tracks/30/interp = 1
tracks/30/loop_wrap = true
tracks/30/imported = false
tracks/30/enabled = true
tracks/30/keys = PoolRealArray( 0, 1, 0, 0, 0, -2.23517e-08, 3.49246e-10, -2.96859e-09, 1, 1, 1, 1, 4.3, 1, 6.12345e-08, -7.07805e-08, 4.51691e-08, -7.45058e-09, -1.86265e-09, 9.28412e-09, 1, 1, 1, 1 )
tracks/31/type = "transform"
tracks/31/path = NodePath("Armature001/Skeleton:LittleFinger2_R")
tracks/31/interp = 1
tracks/31/loop_wrap = true
tracks/31/imported = false
tracks/31/enabled = true
tracks/31/keys = PoolRealArray( 0, 1, 0, 0, 0, -1.0842e-18, 1.86265e-09, -3.37604e-09, 1, 1, 1, 1, 4.3, 1, -3.24799e-08, 8.19564e-08, 3.44589e-08, 1.49012e-08, 1.14087e-08, 6.98492e-10, 1, 1, 1, 1 )
tracks/32/type = "transform"
tracks/32/path = NodePath("Armature001/Skeleton:LittleFinger1_R")
tracks/32/interp = 1
tracks/32/loop_wrap = true
tracks/32/imported = false
tracks/32/enabled = true
tracks/32/keys = PoolRealArray( 0, 1, 0, 0, 0, 4.47035e-08, 1.86265e-09, 6.51926e-09, 1, 1, 1, 1, 4.3, 1, -3.35276e-08, 5.96046e-08, -1.08033e-07, 4.47035e-08, 8.3819e-09, 4.09782e-08, 1, 1, 1, 1 )
tracks/33/type = "transform"
tracks/33/path = NodePath("Armature001/Skeleton:MiddleFinger3_R")
tracks/33/interp = 1
tracks/33/loop_wrap = true
tracks/33/imported = false
tracks/33/enabled = true
tracks/33/keys = PoolRealArray( 0, 1, 0, 0, 0, 3.01755e-21, 2.91038e-11, -1.87356e-10, 1, 1, 1, 1, 4.3, 1, -2.91038e-08, -6.51926e-08, 5.37839e-08, -7.45058e-09, 8.78936e-09, -2.8489e-08, 1, 1, 1, 1 )
tracks/34/type = "transform"
tracks/34/path = NodePath("Armature001/Skeleton:MiddleFinger2_R")
tracks/34/interp = 1
tracks/34/loop_wrap = true
tracks/34/imported = false
tracks/34/enabled = true
tracks/34/keys = PoolRealArray( 0, 1, 0, 0, 0, 7.58942e-19, -4.65661e-10, -2.32831e-10, 1, 1, 1, 1, 4.3, 1, 3.11993e-08, -2.6077e-08, -7.82311e-08, -1.49012e-08, 5.12228e-09, -3.23635e-08, 1, 1, 1, 1 )
tracks/35/type = "transform"
tracks/35/path = NodePath("Armature001/Skeleton:MiddleFinger1_R")
tracks/35/interp = 1
tracks/35/loop_wrap = true
tracks/35/imported = false
tracks/35/enabled = true
tracks/35/keys = PoolRealArray( 0, 1, 0, 0, 0, -6.93889e-18, 3.72529e-09, -5.58794e-09, 1, 1, 1, 1, 4.3, 1, -1.22003e-07, 2.98023e-08, 2.6077e-08, -5.96046e-08, 3.72529e-09, -3.72529e-08, 1, 1, 1, 1 )
tracks/36/type = "transform"
tracks/36/path = NodePath("Armature001/Skeleton:RingFinger3_R")
tracks/36/interp = 1
tracks/36/loop_wrap = true
tracks/36/imported = false
tracks/36/enabled = true
tracks/36/keys = PoolRealArray( 0, 1, 0, 0, 0, -7.51742e-21, 1.45519e-11, -4.82032e-10, 1, 1, 1, 1, 4.3, 1, 8.84029e-08, 1.19209e-07, 8.84756e-09, 7.45058e-09, -4.77303e-09, 1.41472e-08, 1, 1, 1, 1 )
tracks/37/type = "transform"
tracks/37/path = NodePath("Armature001/Skeleton:RingFinger2_R")
tracks/37/interp = 1
tracks/37/loop_wrap = true
tracks/37/imported = false
tracks/37/enabled = true
tracks/37/keys = PoolRealArray( 0, 1, 0, 0, 0, -1.49012e-08, 2.42861e-17, -1.62981e-09, 1, 1, 1, 1, 4.3, 1, -2.86382e-08, -3.72529e-08, -7.63685e-08, -1.49012e-08, 7.45058e-09, -1.28057e-09, 1, 1, 1, 1 )
tracks/38/type = "transform"
tracks/38/path = NodePath("Armature001/Skeleton:RingFinger1_R")
tracks/38/interp = 1
tracks/38/loop_wrap = true
tracks/38/imported = false
tracks/38/enabled = true
tracks/38/keys = PoolRealArray( 0, 1, 0, 0, 0, -1.49012e-08, 0, 0, 1, 1, 1, 1, 4.3, 1, -2.8871e-08, -2.23517e-08, -1.49012e-08, -2.98023e-08, -1.49012e-08, -1.30385e-08, 1, 1, 1, 1 )
tracks/39/type = "transform"
tracks/39/path = NodePath("Armature001/Skeleton:Thumb2_R")
tracks/39/interp = 1
tracks/39/loop_wrap = true
tracks/39/imported = false
tracks/39/enabled = true
tracks/39/keys = PoolRealArray( 0, 1, 0, 0, 0, -4.47035e-08, -7.45058e-09, -6.70552e-08, 1, 1, 1, 1, 4.3, 1, 4.65661e-09, -1.30385e-08, -5.58794e-09, 3.88578e-16, 7.45058e-09, -2.6077e-08, 1, 1, 1, 1 )
tracks/40/type = "transform"
tracks/40/path = NodePath("Armature001/Skeleton:Thumb1_R")
tracks/40/interp = 1
tracks/40/loop_wrap = true
tracks/40/imported = false
tracks/40/enabled = true
tracks/40/keys = PoolRealArray( 0, 1, 0, 0, 0, 3.72529e-09, -1.49012e-08, 4.65661e-09, 1, 1, 1, 1, 4.3, 1, 8.00937e-08, 8.9407e-08, -1.3411e-07, -3.72529e-08, -5.96047e-08, -1.86265e-09, 1, 1, 1, 1 )
tracks/41/type = "transform"
tracks/41/path = NodePath("Armature001/Skeleton:Thumb0_R")
tracks/41/interp = 1
tracks/41/loop_wrap = true
tracks/41/imported = false
tracks/41/enabled = true
tracks/41/keys = PoolRealArray( 0, 1, 0, 0, 0, 1.86265e-09, 6.24501e-17, 2.14204e-08, 1, 1, 1, 1, 4.3, 1, 0, 0, 0, 3.72529e-09, 1.49012e-08, 2.23517e-08, 1, 1, 1, 1 )
tracks/42/type = "transform"
tracks/42/path = NodePath("Armature001/Skeleton:Right wrist")
tracks/42/interp = 1
tracks/42/loop_wrap = true
tracks/42/imported = false
tracks/42/enabled = true
tracks/42/keys = PoolRealArray( 0, 1, 0, 0, 0, 3.72529e-09, 4.47035e-08, 9.31323e-09, 1, 1, 1, 1, 0.0666667, 1, 0, 0, -8.58563e-10, -0.000231946, -0.00054131, -0.000340507, 1, 1, 1, 1, 0.6, 1, -7.45058e-09, 0, -1.46028e-08, -0.00431, -0.00947672, -0.00608916, 0.999927, 1, 1, 1, 0.666667, 1, -7.45058e-09, 0, -1.63272e-08, -0.00464352, -0.00984571, -0.00641585, 0.99992, 1, 1, 1, 0.733333, 1, -7.45058e-09, 0, -1.80371e-08, -0.00457797, -0.00972948, -0.0057749, 0.999926, 1, 1, 1, 0.8, 1, -7.45058e-09, 0, -1.97615e-08, -0.00448095, -0.00941039, -0.0050374, 0.999933, 1, 1, 1, 0.866667, 1, -7.45058e-09, 0, -2.14786e-08, -0.00463949, -0.00953124, -0.00397138, 0.999936, 1, 1, 1, 0.933333, 1, -1.11759e-08, 0, -2.31958e-08, -0.00481624, -0.00990561, -0.00268704, 0.999936, 1, 1, 1, 1, 1, -1.11759e-08, 0, -2.49129e-08, -0.00505265, -0.0106614, -0.0011531, 0.99993, 1, 1, 1, 1.06667, 1, -1.11759e-08, 0, -2.66373e-08, -0.00490249, -0.0107529, 0.000389066, 0.99993, 1, 1, 1, 1.13333, 1, -1.11759e-08, 0, -2.83471e-08, -0.00422815, -0.0100826, 0.002004, 0.999938, 1, 1, 1, 1.26667, 1, -1.49012e-08, 0, -3.17887e-08, -0.00101235, -0.00681922, 0.00624574, 0.999957, 1, 1, 1, 1.33333, 1, -1.49012e-08, 0, -3.35058e-08, 0.00109128, -0.0044168, 0.00841194, 0.999954, 1, 1, 1, 1.4, 1, -1.11759e-08, 0, -3.52229e-08, 0.00335853, -0.000879482, 0.00994835, 0.999945, 1, 1, 1, 1.53333, 1, -1.11759e-08, 0, -3.86572e-08, 0.00821977, 0.00846484, 0.0117612, 0.999861, 1, 1, 1, 1.6, 1, -1.49012e-08, 0, -4.03816e-08, 0.00925953, 0.0107956, 0.0120241, 0.999827, 1, 1, 1, 1.66667, 1, -1.49012e-08, 0, -4.20987e-08, 0.00875726, 0.0101302, 0.0123091, 0.999835, 1, 1, 1, 1.73333, 1, -1.49012e-08, 0, -4.38158e-08, 0.00812153, 0.00944223, 0.0119842, 0.999851, 1, 1, 1, 1.86667, 1, -1.49012e-08, 0, -4.72573e-08, 0.00679863, 0.0084819, 0.0100454, 0.999891, 1, 1, 1, 1.93333, 1, -1.86265e-08, 0, -4.89672e-08, 0.00560412, 0.00776002, 0.00820418, 0.999921, 1, 1, 1, 2, 1, -1.86265e-08, 0, -5.06916e-08, 0.00420334, 0.00659291, 0.00665998, 0.999947, 1, 1, 1, 2.13333, 1, -1.86265e-08, 0, -5.41258e-08, 0.000977418, 0.00323062, 0.00429447, 0.999985, 1, 1, 1, 2.2, 1, -1.11759e-08, 2.98023e-08, -5.58284e-08, -0.000489982, 0.00173666, 0.0027819, 0.999995, 1, 1, 1, 2.26667, 1, -1.49012e-08, 2.98023e-08, -5.75528e-08, -0.00154398, 0.00081092, 0.00138202, 0.999998, 1, 1, 1, 2.33333, 1, -1.49012e-08, 2.98023e-08, -5.927e-08, -0.00249396, 9.68237e-05, -2.81509e-05, 0.999997, 1, 1, 1, 2.4, 1, -1.49012e-08, 2.98023e-08, -6.09871e-08, -0.00354654, -0.000981036, -0.00126171, 0.999992, 1, 1, 1, 2.46667, 1, -1.49012e-08, 2.98023e-08, -6.27115e-08, -0.00459549, -0.00215749, -0.00239448, 0.999984, 1, 1, 1, 2.8, 1, -1.86265e-08, 2.98023e-08, -7.12971e-08, -0.00950717, -0.0064265, -0.00894282, 0.999894, 1, 1, 1, 2.86667, 1, -1.86265e-08, 2.98023e-08, -7.30215e-08, -0.0101812, -0.00701269, -0.00933929, 0.99988, 1, 1, 1, 2.93333, 1, -1.86265e-08, 2.98023e-08, -7.47314e-08, -0.0105436, -0.00737193, -0.00889193, 0.999878, 1, 1, 1, 3.26667, 1, -1.86265e-08, 2.98023e-08, -8.33315e-08, -0.0123555, -0.00916799, -0.00665499, 0.99986, 1, 1, 1, 3.8, 1, -2.6077e-08, 2.98023e-08, -9.70758e-08, -0.00835553, -0.00623665, -0.000518925, 0.999946, 1, 1, 1, 4.3, 1, -3.35276e-08, 2.98023e-08, -1.09962e-07, -0.000338505, -0.000288636, 2.09835e-06, 1, 1, 1, 1 )
tracks/43/type = "transform"
tracks/43/path = NodePath("Armature001/Skeleton:Right elbow")
tracks/43/interp = 1
tracks/43/loop_wrap = true
tracks/43/imported = false
tracks/43/enabled = true
tracks/43/keys = PoolRealArray( 0, 1, 0, 0, 0, 1.86265e-09, 9.54098e-18, 5.12227e-09, 1, 1, 1, 1, 0.0666667, 1, 0, 0, 0, -3.94212e-06, 0.000304873, 0.00133131, 0.999999, 1, 1, 1, 0.6, 1, 0, -2.98023e-08, 0, -6.98791e-05, 0.0053423, 0.0233257, 0.999714, 1, 1, 1, 0.666667, 1, 0, -2.98023e-08, 0, -7.28261e-05, 0.00557165, 0.0243268, 0.999689, 1, 1, 1, 0.733333, 1, 0, -2.98023e-08, 0, -6.78372e-05, 0.00518033, 0.0226186, 0.999731, 1, 1, 1, 1, 1, 0, -4.47035e-08, 0, -3.59823e-05, 0.00277239, 0.012105, 0.999923, 1, 1, 1, 1.06667, 1, 0, -4.47035e-08, 0, -2.5329e-05, 0.00195409, 0.00853198, 0.999962, 1, 1, 1, 1.13333, 1, 0, -4.47035e-08, 0, -1.22183e-05, 0.000948503, 0.0041407, 0.999991, 1, 1, 1, 1.53333, 1, -1.49012e-08, -5.96046e-08, -9.31323e-10, 0.000102642, -0.00781814, -0.0341364, 0.999387, 1, 1, 1, 1.6, 1, -1.49012e-08, -5.96046e-08, 0, 0.000110233, -0.00839724, -0.036665, 0.999292, 1, 1, 1, 1.66667, 1, -1.49012e-08, -5.96046e-08, 0, 0.00011089, -0.00842861, -0.0368009, 0.999287, 1, 1, 1, 1.73333, 1, -1.49012e-08, -5.96046e-08, -9.31323e-10, 0.000107512, -0.00817255, -0.0356826, 0.99933, 1, 1, 1, 1.86667, 1, -1.49012e-08, -7.45058e-08, -9.31323e-10, 9.29915e-05, -0.00707164, -0.0308758, 0.999498, 1, 1, 1, 2.86667, 1, -1.49012e-08, -8.9407e-08, 0, -7.8636e-05, 0.0060239, 0.0263019, 0.999636, 1, 1, 1, 3.26667, 1, 0, -1.04308e-07, -9.31323e-10, -6.27e-05, 0.00479544, 0.0209378, 0.999769, 1, 1, 1, 3.8, 1, -1.49012e-08, -1.3411e-07, -9.31323e-10, -1.3401e-05, 0.00104603, 0.00456752, 0.999989, 1, 1, 1, 4.3, 1, -1.49012e-08, -1.49012e-07, -9.31323e-10, -5.73338e-07, 5.77903e-05, 0.000251687, 1, 1, 1, 1 )
tracks/44/type = "transform"
tracks/44/path = NodePath("Armature001/Skeleton:Right arm")
tracks/44/interp = 1
tracks/44/loop_wrap = true
tracks/44/imported = false
tracks/44/enabled = true
tracks/44/keys = PoolRealArray( 0, 1, 0, 0, 0, 4.996e-16, 1.49012e-08, 1.86265e-08, 1, 1, 1, 1, 0.0666667, 1, 0, 0, -7.45058e-09, 4.07711e-05, 0.00045273, -0.000102039, 1, 1, 1, 1, 0.533333, 1, -7.45058e-09, 7.45058e-09, -1.49012e-08, 0.000788859, 0.00707085, -0.00151944, 0.999974, 1, 1, 1, 0.6, 1, 0, 1.49012e-08, -1.49012e-08, 0.00113347, 0.00722825, -0.00161834, 0.999972, 1, 1, 1, 0.666667, 1, 0, 1.49012e-08, -2.23517e-08, 0.00150686, 0.00694656, -0.00152011, 0.999974, 1, 1, 1, 0.733333, 1, 0, 1.49012e-08, -2.23517e-08, 0.00115072, 0.00656385, -0.000487922, 0.999978, 1, 1, 1, 0.8, 1, -7.45058e-09, 7.45058e-09, -2.98023e-08, 0.000916901, 0.00583408, 0.000546342, 0.999982, 1, 1, 1, 0.866667, 1, -7.45058e-09, 7.45058e-09, -2.98023e-08, 0.000619836, 0.00553509, 0.00154589, 0.999983, 1, 1, 1, 0.933333, 1, -7.45058e-09, 7.45058e-09, -3.72529e-08, -6.06002e-05, 0.00584956, 0.00208563, 0.999981, 1, 1, 1, 1, 1, -7.45058e-09, 7.45058e-09, -3.72529e-08, -0.00121248, 0.00688774, 0.002146, 0.999973, 1, 1, 1, 1.06667, 1, -7.45058e-09, 1.49012e-08, -3.72529e-08, -0.00241606, 0.00735565, 0.00258169, 0.999967, 1, 1, 1, 1.13333, 1, -7.45058e-09, 1.49012e-08, -3.72529e-08, -0.00381543, 0.00725675, 0.00395606, 0.999959, 1, 1, 1, 1.33333, 1, -1.49012e-08, 1.49012e-08, -4.47035e-08, -0.0111834, 0.00571533, 0.0134817, 0.99983, 1, 1, 1, 1.4, 1, -1.49012e-08, 1.49012e-08, -4.47035e-08, -0.0125441, 0.00332909, 0.0169511, 0.999772, 1, 1, 1, 1.53333, 1, -1.49012e-08, 1.49012e-08, -5.21541e-08, -0.0129013, -0.00483004, 0.0241906, 0.999612, 1, 1, 1, 1.6, 1, -7.45058e-09, 2.23517e-08, -5.21541e-08, -0.0125369, -0.00678647, 0.0250697, 0.999584, 1, 1, 1, 1.66667, 1, -7.45058e-09, 2.23517e-08, -5.21541e-08, -0.012211, -0.00587863, 0.0234241, 0.999634, 1, 1, 1, 1.73333, 1, -7.45058e-09, 2.23517e-08, -5.21541e-08, -0.011424, -0.00505292, 0.0211849, 0.999698, 1, 1, 1, 1.86667, 1, -7.45058e-09, 2.98023e-08, -5.96046e-08, -0.00875662, -0.00399146, 0.0153874, 0.999835, 1, 1, 1, 1.93333, 1, -7.45058e-09, 2.98023e-08, -5.96046e-08, -0.00603173, -0.00418441, 0.0126306, 0.999893, 1, 1, 1, 2, 1, -1.49012e-08, 2.98023e-08, -5.96046e-08, -0.00340251, -0.0039902, 0.0101325, 0.999935, 1, 1, 1, 2.06667, 1, -1.49012e-08, 2.98023e-08, -6.70552e-08, -0.000738659, -0.00332846, 0.00832897, 0.99996, 1, 1, 1, 2.13333, 1, -1.49012e-08, 3.72529e-08, -6.70552e-08, 0.00183595, -0.00260243, 0.00682534, 0.999972, 1, 1, 1, 2.2, 1, -2.23517e-08, 2.23517e-08, -7.45058e-08, 0.00440551, -0.00184088, 0.00456587, 0.999978, 1, 1, 1, 2.26667, 1, -2.23517e-08, 2.23517e-08, -7.45058e-08, 0.00670826, -0.00142822, 0.00318963, 0.999971, 1, 1, 1, 2.33333, 1, -2.23517e-08, 2.23517e-08, -8.19564e-08, 0.00904768, -0.00116134, 0.0019861, 0.999956, 1, 1, 1, 2.4, 1, -2.23517e-08, 2.23517e-08, -8.19564e-08, 0.0111123, -0.000338409, 0.000651268, 0.999938, 1, 1, 1, 2.46667, 1, -2.23517e-08, 2.23517e-08, -8.19564e-08, 0.0130019, 0.000552125, -0.000416772, 0.999915, 1, 1, 1, 2.53333, 1, -2.23517e-08, 2.23517e-08, -8.19564e-08, 0.0151405, 0.00109785, -0.00170724, 0.999883, 1, 1, 1, 2.6, 1, -1.49012e-08, 2.23517e-08, -8.9407e-08, 0.0172362, 0.00185635, -0.00317261, 0.999845, 1, 1, 1, 2.8, 1, -1.49012e-08, 2.98023e-08, -8.9407e-08, 0.0237528, 0.00317789, -0.00681188, 0.99969, 1, 1, 1, 2.86667, 1, -2.23517e-08, 2.98023e-08, -8.9407e-08, 0.025191, 0.00356632, -0.00730455, 0.99965, 1, 1, 1, 3.26667, 1, -2.23517e-08, 4.47035e-08, -1.04308e-07, 0.0294173, 0.00558418, -0.0059379, 0.999534, 1, 1, 1, 3.8, 1, -2.98023e-08, 4.47035e-08, -1.2666e-07, 0.0212642, 0.00535802, -0.000976604, 0.999759, 1, 1, 1, 4.3, 1, -2.98023e-08, 5.21541e-08, -1.3411e-07, 0.00069284, 0.000248991, -0.000279428, 1, 1, 1, 1 )
tracks/45/type = "transform"
tracks/45/path = NodePath("Armature001/Skeleton:Right shoulder")
tracks/45/interp = 1
tracks/45/loop_wrap = true
tracks/45/imported = false
tracks/45/enabled = true
tracks/45/keys = PoolRealArray( 0, 1, 0, 0, 0, -1.67638e-08, -6.70552e-08, 5.96046e-08, 1, 1, 1, 1, 0.0666667, 1, 0, 0, 0, 0.000172252, 3.47869e-05, -0.000215298, 1, 1, 1, 1, 0.133333, 1, -1.86265e-09, 0, 0, 0.000516838, 0.000104451, -0.000645975, 1, 1, 1, 1, 0.2, 1, -1.86265e-09, 0, 0, 0.000861485, 0.000174102, -0.00107651, 0.999999, 1, 1, 1, 0.266667, 1, -1.86265e-09, 0, 0, 0.00120612, 0.000243836, -0.00150712, 0.999998, 1, 1, 1, 0.333333, 1, 1.86265e-09, -7.45058e-09, 1.49012e-08, 0.00155071, 0.000313393, -0.00193776, 0.999997, 1, 1, 1, 0.4, 1, 1.86265e-09, -7.45058e-09, 1.49012e-08, 0.00192321, 0.000400975, -0.00247653, 0.999995, 1, 1, 1, 0.466667, 1, 1.86265e-09, -7.45058e-09, 1.49012e-08, 0.0022824, 0.000504507, -0.00311012, 0.999992, 1, 1, 1, 0.533333, 1, 1.86265e-09, -7.45058e-09, 1.49012e-08, 0.00248004, 0.000596065, -0.00367209, 0.99999, 1, 1, 1, 0.6, 1, 1.86265e-09, -7.45058e-09, 1.49012e-08, 0.00219197, 0.000705283, -0.00408738, 0.999989, 1, 1, 1, 0.666667, 1, 1.86265e-09, -7.45058e-09, 1.49012e-08, 0.00170549, 0.00086538, -0.00450897, 0.999988, 1, 1, 1, 0.733333, 1, 1.86265e-09, -7.45058e-09, 1.49012e-08, 0.00149691, 0.000957052, -0.00508449, 0.999986, 1, 1, 1, 0.8, 1, 1.86265e-09, 0, 1.49012e-08, 0.00103722, 0.00111249, -0.00559288, 0.999983, 1, 1, 1, 0.866667, 1, 3.72529e-09, 0, 2.98023e-08, 0.00033617, 0.00122192, -0.00610562, 0.999981, 1, 1, 1, 0.933333, 1, 3.72529e-09, 0, 2.98023e-08, -5.14199e-05, 0.00124411, -0.00618443, 0.99998, 1, 1, 1, 1, 1, 3.72529e-09, 0, 2.98023e-08, -0.000100718, 0.00120112, -0.00586557, 0.999982, 1, 1, 1, 1.06667, 1, 3.72529e-09, 0, 2.98023e-08, 5.63581e-05, 0.00116332, -0.00563376, 0.999984, 1, 1, 1, 1.13333, 1, 1.86265e-09, 0, 2.98023e-08, 0.000626453, 0.00105719, -0.00576187, 0.999983, 1, 1, 1, 1.2, 1, 1.86265e-09, 0, 2.98023e-08, 0.00221075, 0.000819107, -0.00643658, 0.999977, 1, 1, 1, 1.26667, 1, 1.86265e-09, 0, 2.98023e-08, 0.00411968, 0.000556326, -0.00724645, 0.999965, 1, 1, 1, 1.33333, 1, 1.86265e-09, 0, 2.98023e-08, 0.0062878, 0.000206356, -0.00772296, 0.99995, 1, 1, 1, 1.4, 1, 3.72529e-09, -7.45058e-09, 5.96046e-08, 0.00760157, -5.12078e-05, -0.00826704, 0.999937, 1, 1, 1, 1.46667, 1, 3.72529e-09, -7.45058e-09, 5.96046e-08, 0.00806083, -0.00021658, -0.00887862, 0.999928, 1, 1, 1, 1.53333, 1, 3.72529e-09, -7.45058e-09, 5.96046e-08, 0.0085202, -0.000381812, -0.00949031, 0.999919, 1, 1, 1, 1.6, 1, 3.72529e-09, -7.45058e-09, 5.96046e-08, 0.00839674, -0.000567974, -0.00913071, 0.999923, 1, 1, 1, 1.73333, 1, 3.72529e-09, -7.45058e-09, 5.96046e-08, 0.00713454, -0.000873459, -0.0065208, 0.999953, 1, 1, 1, 1.86667, 1, 3.72529e-09, -7.45058e-09, 5.96046e-08, 0.00553359, -0.00116428, -0.00294526, 0.99998, 1, 1, 1, 1.93333, 1, 7.45058e-09, -1.49012e-08, 7.45058e-08, 0.00365327, -0.00104983, -0.00172338, 0.999991, 1, 1, 1, 2, 1, 5.58794e-09, -1.49012e-08, 7.45058e-08, 0.00165454, -0.000898927, -0.000714649, 0.999998, 1, 1, 1, 2.13333, 1, 5.58794e-09, -1.49012e-08, 7.45058e-08, -0.00251717, -0.000481066, 0.000468572, 0.999997, 1, 1, 1, 2.2, 1, 5.58794e-09, -7.45058e-09, 7.45058e-08, -0.00424585, -0.00024095, 0.00151521, 0.99999, 1, 1, 1, 2.33333, 1, 5.58794e-09, -7.45058e-09, 7.45058e-08, -0.00678343, 0.000108866, 0.00267635, 0.999973, 1, 1, 1, 2.4, 1, 5.58794e-09, -7.45058e-09, 7.45058e-08, -0.00778709, 0.000205889, 0.00326843, 0.999964, 1, 1, 1, 2.46667, 1, 5.58794e-09, -7.45058e-09, 8.9407e-08, -0.00871914, 0.000348916, 0.00364998, 0.999955, 1, 1, 1, 2.53333, 1, 5.58794e-09, -7.45058e-09, 8.9407e-08, -0.0097828, 0.000524415, 0.00415775, 0.999943, 1, 1, 1, 2.6, 1, 5.58794e-09, -7.45058e-09, 8.9407e-08, -0.0107258, 0.000616373, 0.00475374, 0.999931, 1, 1, 1, 2.86667, 1, 5.58794e-09, -7.45058e-09, 8.9407e-08, -0.0152014, 0.00127061, 0.00654112, 0.999862, 1, 1, 1, 3.26667, 1, 5.58794e-09, -1.49012e-08, 1.04308e-07, -0.019714, 0.00194144, 0.00816442, 0.99977, 1, 1, 1, 3.33333, 1, 5.58794e-09, -1.49012e-08, 1.04308e-07, -0.019136, 0.00187715, 0.00803872, 0.999783, 1, 1, 1, 3.4, 1, 5.58794e-09, -1.49012e-08, 1.04308e-07, -0.018558, 0.00181282, 0.0079131, 0.999795, 1, 1, 1, 3.46667, 1, 5.58794e-09, -1.49012e-08, 1.04308e-07, -0.0179799, 0.00174853, 0.00778738, 0.999807, 1, 1, 1, 3.8, 1, 7.45058e-09, -2.23517e-08, 1.19209e-07, -0.0150895, 0.00142713, 0.00715884, 0.99986, 1, 1, 1, 4.3, 1, 9.31323e-09, -2.98023e-08, 1.3411e-07, -0.000569701, 4.21061e-05, 0.000348115, 1, 1, 1, 1 )
tracks/46/type = "transform"
tracks/46/path = NodePath("Armature001/Skeleton:Chest")
tracks/46/interp = 1
tracks/46/loop_wrap = true
tracks/46/imported = false
tracks/46/enabled = true
tracks/46/keys = PoolRealArray( 0, 1, 0, 0, 0, -3.72529e-09, -1.74623e-10, -2.43745e-10, 1, 1, 1, 1, 0.0666667, 1, 0, 0, 0, 0.000444353, -1.91711e-05, -1.99632e-06, 1, 1, 1, 1, 0.533333, 1, 4.65661e-10, 1.49012e-08, -2.32831e-09, 0.00708248, -0.000315282, -3.66851e-05, 0.999975, 1, 1, 1, 0.6, 1, 4.65661e-10, 1.49012e-08, -2.32831e-09, 0.00748919, -0.000346863, -4.68959e-05, 0.999972, 1, 1, 1, 0.666667, 1, 4.65661e-10, 1.49012e-08, -2.79397e-09, 0.00759649, -0.000377271, -5.71685e-05, 0.999971, 1, 1, 1, 0.733333, 1, 4.65661e-10, 2.23517e-08, -3.25963e-09, 0.00688872, -0.000406031, -6.66908e-05, 0.999976, 1, 1, 1, 0.8, 1, 4.65661e-10, 2.23517e-08, -3.72529e-09, 0.00596872, -0.000432429, -7.50391e-05, 0.999982, 1, 1, 1, 0.866667, 1, 4.65661e-10, 2.23517e-08, -3.72529e-09, 0.00486762, -0.000455595, -8.19043e-05, 0.999988, 1, 1, 1, 1.6, 1, 4.65661e-10, 4.47035e-08, -6.98492e-09, -0.0116409, -0.000418066, 4.81978e-05, 0.999932, 1, 1, 1, 1.66667, 1, 4.65661e-10, 4.47035e-08, -7.45058e-09, -0.0121251, -0.000398462, 7.88827e-05, 0.999927, 1, 1, 1, 1.8, 1, 4.65661e-10, 5.21541e-08, -8.3819e-09, -0.0118398, -0.000369098, 0.000200965, 0.99993, 1, 1, 1, 1.86667, 1, 4.65661e-10, 5.21541e-08, -8.3819e-09, -0.0115213, -0.000357646, 0.000271419, 0.999934, 1, 1, 1, 2, 1, 4.65661e-10, 5.21541e-08, -8.84756e-09, -0.00861932, -0.000501994, 0.000365088, 0.999963, 1, 1, 1, 2.33333, 1, 9.31323e-10, 6.70552e-08, -1.07102e-08, 0.0023766, -0.00101627, 0.000346378, 0.999997, 1, 1, 1, 2.8, 1, 9.31323e-10, 7.45058e-08, -1.25729e-08, 0.0184027, -0.000927694, 0.000433522, 0.99983, 1, 1, 1, 2.86667, 1, 9.31323e-10, 8.19564e-08, -1.30385e-08, 0.019609, -0.000902164, 0.000468728, 0.999807, 1, 1, 1, 2.93333, 1, 9.31323e-10, 8.19564e-08, -1.35042e-08, 0.0198503, -0.000891849, 0.000519464, 0.999802, 1, 1, 1, 3, 1, 9.31323e-10, 8.19564e-08, -1.35042e-08, 0.0200916, -0.000881532, 0.000570224, 0.999798, 1, 1, 1, 3.06667, 1, 9.31323e-10, 8.19564e-08, -1.35042e-08, 0.0203328, -0.00087122, 0.000620988, 0.999793, 1, 1, 1, 3.13333, 1, 9.31323e-10, 8.9407e-08, -1.44355e-08, 0.020574, -0.000860898, 0.000671742, 0.999788, 1, 1, 1, 3.2, 1, 9.31323e-10, 8.9407e-08, -1.44355e-08, 0.0208152, -0.000850584, 0.000722493, 0.999783, 1, 1, 1, 3.26667, 1, 9.31323e-10, 8.9407e-08, -1.49012e-08, 0.0210565, -0.000840272, 0.000773244, 0.999778, 1, 1, 1, 3.8, 1, 9.31323e-10, 1.04308e-07, -1.72295e-08, 0.0136477, -0.000726433, 0.000623074, 0.999906, 1, 1, 1, 4.3, 1, 9.31323e-10, 1.19209e-07, -1.95578e-08, 0.000324018, -3.93507e-05, -7.71052e-06, 1, 1, 1, 1 )
tracks/47/type = "transform"
tracks/47/path = NodePath("Armature001/Skeleton:Spine")
tracks/47/interp = 1
tracks/47/loop_wrap = true
tracks/47/imported = false
tracks/47/enabled = true
tracks/47/keys = PoolRealArray( 0, 1, 0, 0, 0, -7.45058e-09, 3.72529e-09, 6.51926e-09, 1, 1, 1, 1, 0.0666667, 1, 0, 0, 0, 0.000224009, 1.02232e-05, -2.86935e-05, 1, 1, 1, 1, 0.133333, 1, 0, 0, 0, 0.000672105, 3.0646e-05, -8.60767e-05, 1, 1, 1, 1, 0.333333, 1, 0, 0, 0, 0.00201624, 9.19114e-05, -0.00025824, 0.999998, 1, 1, 1, 0.4, 1, 0, 0, 0, 0.00254517, 0.000117229, -0.000328734, 0.999997, 1, 1, 1, 0.533333, 1, 0, 0, 0, 0.00357218, 0.000171062, -0.000478808, 0.999994, 1, 1, 1, 0.733333, 1, 0, 0, 0, 0.00348388, 0.000228759, -0.000625836, 0.999994, 1, 1, 1, 0.933333, 1, 0, 0, 0, 0.00185079, 0.000286312, -0.000726166, 0.999998, 1, 1, 1, 1, 1, 0, 0, 0, 0.00116014, 0.000308419, -0.000753195, 0.999999, 1, 1, 1, 1.6, 1, 0, 0, 0, -0.00576356, 0.000564094, -0.000839709, 0.999983, 1, 1, 1, 1.86667, 1, 0, 0, 0, -0.00571426, 0.000484555, -0.000569446, 0.999983, 1, 1, 1, 1.93333, 1, 0, 0, 0, -0.00501711, 0.000370008, -0.000438859, 0.999987, 1, 1, 1, 2, 1, 0, 0, 0, -0.00427779, 0.000245169, -0.000309498, 0.999991, 1, 1, 1, 2.26667, 1, 0, 0, 0, 1.99529e-05, -0.00046737, 0.000271605, 1, 1, 1, 1, 2.86667, 1, 0, 0, 0, 0.00971908, -0.0014699, 0.0015088, 0.999951, 1, 1, 1, 3, 1, 0, 0, 0, 0.00995396, -0.00153328, 0.00165454, 0.999948, 1, 1, 1, 3.13333, 1, 0, 0, 0, 0.0101888, -0.00159664, 0.0018003, 0.999945, 1, 1, 1, 3.33333, 1, 0, 0, 0, 0.00996368, -0.00161448, 0.00189004, 0.999947, 1, 1, 1, 3.4, 1, 0, 0, 0, 0.00950364, -0.00156892, 0.00183405, 0.999952, 1, 1, 1, 3.46667, 1, 0, 0, 0, 0.00904362, -0.00152336, 0.00177805, 0.999956, 1, 1, 1, 3.53333, 1, 0, 0, 0, 0.00858358, -0.00147783, 0.00172204, 0.999961, 1, 1, 1, 3.6, 1, 0, 0, 0, 0.00812356, -0.00143227, 0.00166604, 0.999965, 1, 1, 1, 3.66667, 1, 0, 0, 0, 0.0076635, -0.00138673, 0.00161002, 0.999968, 1, 1, 1, 3.73333, 1, 0, 0, 0, 0.00720348, -0.00134117, 0.00155403, 0.999972, 1, 1, 1, 3.8, 1, 0, 0, 0, 0.00674345, -0.00129563, 0.00149802, 0.999975, 1, 1, 1, 4.3, 1, 0, 0, 0, 0.000160054, -4.20808e-05, 2.37028e-05, 1, 1, 1, 1 )
tracks/48/type = "transform"
tracks/48/path = NodePath("Armature001/Skeleton:Left toe")
tracks/48/interp = 1
tracks/48/loop_wrap = true
tracks/48/imported = false
tracks/48/enabled = true
tracks/48/keys = PoolRealArray( 0, 1, 0, 0, 0, 0, 0, 1.00346e-14, 1, 1, 1, 1, 4.3, 1, 1.49012e-08, 1.49012e-08, 5.96046e-08, -7.45058e-09, 4.65661e-10, -4.65658e-10, 1, 1, 1, 1 )
tracks/49/type = "transform"
tracks/49/path = NodePath("Armature001/Skeleton:Left ankle")
tracks/49/interp = 1
tracks/49/loop_wrap = true
tracks/49/imported = false
tracks/49/enabled = true
tracks/49/keys = PoolRealArray( 0, 1, 0, 0, 0, 2.98023e-08, 5.3551e-09, -1.86265e-09, 1, 1, 1, 1, 1.8, 1, -1.30385e-08, 0, 0, 6.83478e-08, -0.000177074, 0.000133525, 1, 1, 1, 1, 2.66667, 1, -1.86265e-08, 0, 0, 2.36095e-05, -0.000134483, -0.000176647, 1, 1, 1, 1, 3.13333, 1, -2.23517e-08, 0, 0, 0.000112323, -4.04424e-05, -0.000418488, 1, 1, 1, 1, 4.26667, 1, -2.98023e-08, 0, 0, -1.25181e-06, -4.74552e-06, -2.40209e-05, 1, 1, 1, 1, 4.3, 1, -2.98023e-08, 0, 0, -8.64327e-07, -8.94186e-06, -6.6911e-06, 1, 1, 1, 1 )
tracks/50/type = "transform"
tracks/50/path = NodePath("Armature001/Skeleton:Left knee")
tracks/50/interp = 1
tracks/50/loop_wrap = true
tracks/50/imported = false
tracks/50/enabled = true
tracks/50/keys = PoolRealArray( 0, 1, 0, 0, 0, 2.73219e-17, 4.88944e-09, -1.86265e-09, 1, 1, 1, 1, 0.933333, 1, -3.72529e-09, 0, 0, 0.000133187, 0.000210456, -6.6878e-07, 1, 1, 1, 1, 1.13333, 1, -3.72529e-09, 0, 0, 0.00026578, 0.000494263, -4.70416e-06, 1, 1, 1, 1, 1.8, 1, -3.72529e-09, 0, 0, 0.000348467, 0.000241069, 1.8183e-05, 1, 1, 1, 1, 1.93333, 1, -7.45058e-09, 0, 0, 0.000198978, -9.94945e-05, 2.3817e-05, 1, 1, 1, 1, 2.06667, 1, -7.45058e-09, 0, 0, 4.64395e-05, 1.20872e-05, 1.1133e-06, 1, 1, 1, 1, 2.13333, 1, -7.45058e-09, 0, 0, -7.96338e-05, 0.000219327, -2.47762e-05, 1, 1, 1, 1, 2.26667, 1, -1.11759e-08, -3.72529e-09, 2.98023e-08, -0.00019616, 0.000522547, -5.44879e-05, 1, 1, 1, 1, 2.73333, 1, -1.11759e-08, -3.72529e-09, 2.98023e-08, -0.000249358, 0.000932455, -8.58683e-05, 1, 1, 1, 1, 3.53333, 1, -1.49012e-08, -3.72529e-09, 2.98023e-08, -0.000189679, 0.00067113, -6.32995e-05, 1, 1, 1, 1, 3.86667, 1, -1.49012e-08, -3.72529e-09, 2.98023e-08, -0.000152637, 0.000294069, -3.53566e-05, 1, 1, 1, 1, 4.26667, 1, -1.86265e-08, -3.72529e-09, 2.98023e-08, -2.02953e-05, 3.11987e-05, -4.17355e-06, 1, 1, 1, 1, 4.3, 1, -1.86265e-08, -3.72529e-09, 2.98023e-08, -9.23126e-06, 9.32209e-06, -1.54591e-06, 1, 1, 1, 1 )
tracks/51/type = "transform"
tracks/51/path = NodePath("Armature001/Skeleton:Left leg")
tracks/51/interp = 1
tracks/51/loop_wrap = true
tracks/51/imported = false
tracks/51/enabled = true
tracks/51/keys = PoolRealArray( 0, 1, 0, 0, 0, 9.31319e-10, 7.96281e-08, -4.47035e-08, 1, 1, 1, 1, 0.0666667, 1, 0, 0, 0, -0.000228669, -7.54965e-05, -2.44403e-05, 1, 1, 1, 1, 0.133333, 1, 0, 0, 0, -0.000685867, -0.000226518, -7.3186e-05, 1, 1, 1, 1, 0.4, 1, 0, 0, 0, -0.00262229, -0.000859346, -0.000284542, 0.999996, 1, 1, 1, 0.466667, 1, 0, 0, 0, -0.00327039, -0.00105799, -0.000365605, 0.999994, 1, 1, 1, 0.533333, 1, 0, 0, 0, -0.00381625, -0.00121336, -0.000444963, 0.999992, 1, 1, 1, 0.6, 1, 0, 0, 0, -0.004244, -0.00129813, -0.000531913, 0.99999, 1, 1, 1, 0.666667, 1, 0, 0, 0, -0.00463866, -0.00136499, -0.000608078, 0.999988, 1, 1, 1, 0.733333, 1, 0, 0, 0, -0.00494935, -0.00141673, -0.000667724, 0.999987, 1, 1, 1, 0.8, 1, 0, 0, 0, -0.00525682, -0.00145332, -0.000729106, 0.999985, 1, 1, 1, 0.866667, 1, 0, 0, 0, -0.00555092, -0.00147957, -0.000791849, 0.999983, 1, 1, 1, 0.933333, 1, 0, 0, 0, -0.00583037, -0.00149832, -0.000863333, 0.999982, 1, 1, 1, 1, 1, 0, 0, 0, -0.00609373, -0.0015152, -0.000938369, 0.99998, 1, 1, 1, 1.06667, 1, 0, 0, 0, -0.00634937, -0.00152505, -0.00101541, 0.999978, 1, 1, 1, 1.13333, 1, 0, 0, 0, -0.0065978, -0.00153049, -0.0010922, 0.999976, 1, 1, 1, 1.2, 1, 0, 0, 0, -0.00683592, -0.00153291, -0.00114742, 0.999975, 1, 1, 1, 1.26667, 1, 0, 0, 0, -0.0070734, -0.00153179, -0.00119199, 0.999973, 1, 1, 1, 1.4, 1, 0, 0, 0, -0.00742916, -0.00156756, -0.00125054, 0.99997, 1, 1, 1, 1.66667, 1, 0, 0, 0, -0.00738613, -0.00157692, -0.0012594, 0.999971, 1, 1, 1, 1.73333, 1, 0, 0, 0, -0.00697853, -0.00156269, -0.00115497, 0.999974, 1, 1, 1, 1.8, 1, 0, 0, 0, -0.00645455, -0.00154565, -0.0010062, 0.999977, 1, 1, 1, 1.86667, 1, 0, 0, 0, -0.00593038, -0.00152858, -0.000857375, 0.999981, 1, 1, 1, 2, 1, 0, 0, 0, -0.00412606, -0.00129023, -0.000537554, 0.999991, 1, 1, 1, 2.73333, 1, 0, 0, 0, 0.00807127, 0.00187355, 0.00102893, 0.999965, 1, 1, 1, 2.8, 1, 0, 0, 0, 0.00909929, 0.00214026, 0.00113598, 0.999956, 1, 1, 1, 2.86667, 1, 0, 0, 0, 0.00980937, 0.0023317, 0.00120819, 0.999948, 1, 1, 1, 3, 1, 0, 0, 0, 0.0105921, 0.00256385, 0.0012829, 0.99994, 1, 1, 1, 3.06667, 1, 0, 0, 0, 0.0109836, 0.00267998, 0.00132023, 0.999935, 1, 1, 1, 3.13333, 1, 0, 0, 0, 0.0113751, 0.00279606, 0.00135757, 0.999931, 1, 1, 1, 3.2, 1, 0, 0, 0, 0.0117663, 0.00291209, 0.00139486, 0.999926, 1, 1, 1, 3.26667, 1, 0, 0, 0, 0.0121579, 0.0030282, 0.00143221, 0.99992, 1, 1, 1, 3.33333, 1, 0, 0, 0, 0.0118027, 0.00294951, 0.00138244, 0.999925, 1, 1, 1, 3.4, 1, 0, 0, 0, 0.0114476, 0.00287086, 0.00133262, 0.999929, 1, 1, 1, 3.8, 1, 0, 0, 0, 0.00931681, 0.00239885, 0.00103395, 0.999953, 1, 1, 1, 4.3, 1, 0, 0, 0, 0.00021056, 5.36724e-05, 2.12676e-05, 1, 1, 1, 1 )
tracks/52/type = "transform"
tracks/52/path = NodePath("Armature001/Skeleton:Right toe")
tracks/52/interp = 1
tracks/52/loop_wrap = true
tracks/52/imported = false
tracks/52/enabled = true
tracks/52/keys = PoolRealArray( 0, 1, 0, 0, 0, -1.49012e-08, 2.79397e-09, -2.32831e-09, 1, 1, 1, 1, 0.733333, 1, 3.72529e-09, 0, 0, 0.000210049, -1.19283e-05, 0.00018225, 1, 1, 1, 1, 0.933333, 1, 3.72529e-09, 0, 0, 0.00026229, 0.000303449, 0.000295841, 1, 1, 1, 1, 1, 1, 3.72529e-09, 0, 0, 0.000276552, 0.00043555, 0.000339884, 1, 1, 1, 1, 1.2, 1, 3.72529e-09, 0, 0, 0.00031108, 0.000864091, 0.000479678, 0.999999, 1, 1, 1, 1.73333, 1, 7.45058e-09, 0, 0, 0.000217932, 0.000673188, 0.000661127, 1, 1, 1, 1, 1.8, 1, 7.45058e-09, 0, 0, 0.00017927, 0.000448627, 0.000711644, 1, 1, 1, 1, 1.86667, 1, 7.45058e-09, 0, 0, 0.000140705, 0.000224048, 0.000762178, 1, 1, 1, 1, 1.93333, 1, 7.45058e-09, 0, 0, 4.39132e-05, -8.28033e-05, 0.000713723, 1, 1, 1, 1, 2.2, 1, 7.45058e-09, 0, 0, -0.000231317, -0.000108805, 0.000492638, 1, 1, 1, 1, 2.53333, 1, 1.11759e-08, 0, 0, -0.000443388, -0.000425049, 0.000411444, 1, 1, 1, 1, 2.73333, 1, 1.11759e-08, 0, 0, -0.000369407, -0.000640641, 0.000151909, 1, 1, 1, 1, 3.2, 1, 1.11759e-08, 0, 0, -0.000111807, -0.000556169, -6.54419e-06, 1, 1, 1, 1, 4.13333, 1, 1.49012e-08, 0, 0, -1.72678e-05, -0.000146611, 1.76796e-05, 1, 1, 1, 1, 4.3, 1, 1.49012e-08, 0, 0, -1.34035e-07, -1.89808e-05, 3.93809e-06, 1, 1, 1, 1 )
tracks/53/type = "transform"
tracks/53/path = NodePath("Armature001/Skeleton:Right knee")
tracks/53/interp = 1
tracks/53/loop_wrap = true
tracks/53/imported = false
tracks/53/enabled = true
tracks/53/keys = PoolRealArray( 0, 1, 0, 0, 0, 0, -9.31323e-09, -2.23517e-08, 1, 1, 1, 1, 1.2, 1, -7.45058e-09, -1.49012e-08, 0, 0.000280063, -5.22295e-05, 6.14782e-05, 1, 1, 1, 1, 2.8, 1, -2.23517e-08, -3.72529e-08, 0, 0.000280127, -0.000332055, -2.31155e-05, 1, 1, 1, 1, 3.2, 1, -2.23517e-08, -4.09782e-08, 0, 0.000113272, -0.000569602, -0.000116895, 1, 1, 1, 1, 3.86667, 1, -2.98023e-08, -5.21541e-08, 0, -7.09479e-05, -0.000367878, -0.000110742, 1, 1, 1, 1, 4.2, 1, -2.98023e-08, -5.58794e-08, 0, -2.4567e-05, -8.71855e-05, -2.82659e-05, 1, 1, 1, 1, 4.3, 1, -2.98023e-08, -5.58794e-08, 0, -1.05128e-05, -2.93596e-06, -3.4869e-06, 1, 1, 1, 1 )
tracks/54/type = "transform"
tracks/54/path = NodePath("Armature001/Skeleton:Right leg")
tracks/54/interp = 1
tracks/54/loop_wrap = true
tracks/54/imported = false
tracks/54/enabled = true
tracks/54/keys = PoolRealArray( 0, 1, 0, 0, 0, 7.45058e-09, -1.17871e-09, 4.59841e-09, 1, 1, 1, 1, 0.0666667, 1, 0, 0, 0, -0.000262245, 1.71416e-05, -4.45031e-05, 1, 1, 1, 1, 0.6, 1, 0, 0, 0, -0.00479393, 0.000344293, -0.00094834, 0.999988, 1, 1, 1, 0.666667, 1, 0, 0, 0, -0.00519315, 0.000399646, -0.00110206, 0.999986, 1, 1, 1, 0.733333, 1, 0, 0, 0, -0.00549834, 0.000441395, -0.00120817, 0.999984, 1, 1, 1, 0.8, 1, 0, 0, 0, -0.00576227, 0.000484666, -0.00131833, 0.999982, 1, 1, 1, 0.866667, 1, 0, 0, 0, -0.00600533, 0.000525827, -0.00142201, 0.999981, 1, 1, 1, 0.933333, 1, 0, 0, 0, -0.00621859, 0.000565026, -0.00152468, 0.999979, 1, 1, 1, 1, 1, 0, 0, 0, -0.00641019, 0.000606537, -0.00163752, 0.999978, 1, 1, 1, 1.06667, 1, 0, 0, 0, -0.00658556, 0.00064495, -0.0017526, 0.999977, 1, 1, 1, 1.13333, 1, 0, 0, 0, -0.00675403, 0.000680061, -0.00185998, 0.999975, 1, 1, 1, 1.26667, 1, 0, 0, 0, -0.0070558, 0.000743885, -0.00208076, 0.999973, 1, 1, 1, 1.46667, 1, 0, 0, 0, -0.0073673, 0.000769105, -0.00223337, 0.99997, 1, 1, 1, 1.73333, 1, 0, 0, 0, -0.00702207, 0.000578278, -0.00201276, 0.999973, 1, 1, 1, 1.8, 1, 0, 0, 0, -0.0066413, 0.000459134, -0.00181586, 0.999976, 1, 1, 1, 1.86667, 1, 0, 0, 0, -0.00626056, 0.000339976, -0.00161896, 0.999979, 1, 1, 1, 1.93333, 1, 0, 0, 0, -0.0054973, 0.000231562, -0.00129736, 0.999984, 1, 1, 1, 2, 1, 0, 0, 0, -0.00466334, 0.00012679, -0.000986251, 0.999989, 1, 1, 1, 2.26667, 1, 0, 0, 0, -0.000122697, -0.000278633, 0.000291555, 1, 1, 1, 1, 2.86667, 1, 0, 0, 0, 0.00962202, -0.000932435, 0.00311137, 0.999948, 1, 1, 1, 2.93333, 1, 0, 0, 0, 0.0100516, -0.000970132, 0.00320857, 0.999944, 1, 1, 1, 3, 1, 0, 0, 0, 0.0104815, -0.00100786, 0.00330581, 0.999939, 1, 1, 1, 3.06667, 1, 0, 0, 0, 0.0109114, -0.00104556, 0.00340305, 0.999934, 1, 1, 1, 3.26667, 1, 0, 0, 0, 0.0122008, -0.0011587, 0.00369472, 0.999918, 1, 1, 1, 3.33333, 1, 0, 0, 0, 0.0118479, -0.00112176, 0.0035718, 0.999923, 1, 1, 1, 3.8, 1, 0, 0, 0, 0.00937694, -0.000863002, 0.00271121, 0.999952, 1, 1, 1, 4.3, 1, 0, 0, 0, 0.000209094, -1.89032e-05, 6.54549e-05, 1, 1, 1, 1 )
tracks/55/type = "transform"
tracks/55/path = NodePath("Armature001/Skeleton:Hips")
tracks/55/interp = 1
tracks/55/loop_wrap = true
tracks/55/imported = false
tracks/55/enabled = true
tracks/55/keys = PoolRealArray( 0, 1, 0, 0, 0, 8.88178e-16, 0, 0, 1, 1, 1, 1, 4.3, 1, 0, 0, 0, 8.88178e-16, 0, 0, 1, 1, 1, 1 )
tracks/56/type = "transform"
tracks/56/path = NodePath("Armature001")
tracks/56/interp = 1
tracks/56/loop_wrap = true
tracks/56/imported = false
tracks/56/enabled = true
tracks/56/keys = PoolRealArray( 0, 1, -0.0604427, -0.363467, 0.0992188, -0.0808225, -0.066696, -0.0322277, 0.993972, 1, 1, 1, 0.0666667, 1, -0.0603974, -0.363533, 0.0987849, -0.0805766, -0.0667133, -0.0322052, 0.993992, 1, 1, 1, 0.133333, 1, -0.060307, -0.363666, 0.0979172, -0.0800848, -0.0667478, -0.0321602, 0.994031, 1, 1, 1, 0.2, 1, -0.0602165, -0.363799, 0.0970494, -0.0795931, -0.0667823, -0.0321151, 0.994069, 1, 1, 1, 0.4, 1, -0.059909, -0.364229, 0.0942418, -0.0780093, -0.0668937, -0.0319715, 0.994192, 1, 1, 1, 0.466667, 1, -0.0597531, -0.364416, 0.0930082, -0.0773242, -0.0669424, -0.0319126, 0.994244, 1, 1, 1, 0.533333, 1, -0.059629, -0.36457, 0.0919745, -0.0767479, -0.0669834, -0.0318669, 0.994287, 1, 1, 1, 0.6, 1, -0.0595641, -0.364685, 0.0911809, -0.0763026, -0.0670149, -0.0318467, 0.99432, 1, 1, 1, 0.666667, 1, -0.0595197, -0.364788, 0.090458, -0.0758971, -0.0670446, -0.0318388, 0.99435, 1, 1, 1, 0.733333, 1, -0.0595266, -0.364866, 0.0899144, -0.075594, -0.0670702, -0.0318616, 0.99437, 1, 1, 1, 0.8, 1, -0.0596206, -0.364932, 0.0894144, -0.0753183, -0.0670979, -0.0319339, 0.994387, 1, 1, 1, 0.866667, 1, -0.0597322, -0.364991, 0.0889532, -0.0750651, -0.0671239, -0.0320168, 0.994402, 1, 1, 1, 0.933333, 1, -0.0598579, -0.365045, 0.0885265, -0.0748319, -0.0671486, -0.0321079, 0.994415, 1, 1, 1, 1, 1, -0.0599958, -0.365093, 0.0881307, -0.0746158, -0.0671726, -0.0322051, 0.994426, 1, 1, 1, 1.13333, 1, -0.0602833, -0.365181, 0.087411, -0.0742242, -0.0672175, -0.0324056, 0.994446, 1, 1, 1, 1.2, 1, -0.0604232, -0.365223, 0.0870805, -0.0740446, -0.0672378, -0.0325025, 0.994455, 1, 1, 1, 1.26667, 1, -0.0605605, -0.365265, 0.0867563, -0.0738685, -0.0672576, -0.0325974, 0.994463, 1, 1, 1, 1.33333, 1, -0.0606742, -0.365304, 0.0864872, -0.0737212, -0.0672759, -0.0326781, 0.99447, 1, 1, 1, 1.4, 1, -0.060738, -0.365343, 0.0862659, -0.0735979, -0.0672894, -0.0327277, 0.994477, 1, 1, 1, 1.53333, 1, -0.0607656, -0.365421, 0.0859188, -0.0733996, -0.0673072, -0.0327647, 0.994489, 1, 1, 1, 1.6, 1, -0.0606734, -0.365442, 0.0860115, -0.0734527, -0.0673009, -0.0327003, 0.994488, 1, 1, 1, 1.66667, 1, -0.0604094, -0.365439, 0.086396, -0.0736673, -0.0672739, -0.0325247, 0.99448, 1, 1, 1, 1.73333, 1, -0.0601083, -0.365402, 0.0870265, -0.0740165, -0.0672333, -0.0323175, 0.994463, 1, 1, 1, 1.8, 1, -0.0597887, -0.365337, 0.0878426, -0.0744675, -0.0671842, -0.0320915, 0.99444, 1, 1, 1, 1.86667, 1, -0.0594691, -0.365272, 0.0886586, -0.0749185, -0.0671353, -0.0318654, 0.994417, 1, 1, 1, 1.93333, 1, -0.0592565, -0.365069, 0.0900936, -0.0757021, -0.0670573, -0.0316789, 0.994369, 1, 1, 1, 2, 1, -0.0591643, -0.36483, 0.0916106, -0.0765298, -0.0669612, -0.031561, 0.994316, 1, 1, 1, 2.2, 1, -0.0594701, -0.363819, 0.0975864, -0.0797988, -0.0664086, -0.0315855, 0.994095, 1, 1, 1, 2.53333, 1, -0.0604409, -0.362048, 0.10798, -0.0855912, -0.0659288, -0.0318852, 0.993635, 1, 1, 1, 2.8, 1, -0.0613764, -0.360712, 0.115848, -0.0900378, -0.0658006, -0.0322644, 0.993238, 1, 1, 1, 2.86667, 1, -0.0615508, -0.360483, 0.117181, -0.0908003, -0.0657789, -0.0323422, 0.993168, 1, 1, 1, 2.93333, 1, -0.0616666, -0.360349, 0.117913, -0.0912291, -0.0657592, -0.0324009, 0.993128, 1, 1, 1, 3, 1, -0.0617825, -0.360215, 0.118644, -0.0916578, -0.0657395, -0.0324596, 0.993088, 1, 1, 1, 3.06667, 1, -0.0618983, -0.360082, 0.119375, -0.0920866, -0.0657197, -0.0325182, 0.993048, 1, 1, 1, 3.13333, 1, -0.0620141, -0.359948, 0.120106, -0.0925153, -0.0656999, -0.0325769, 0.993007, 1, 1, 1, 3.2, 1, -0.0621299, -0.359814, 0.120837, -0.092944, -0.0656801, -0.0326355, 0.992967, 1, 1, 1, 3.26667, 1, -0.0622458, -0.35968, 0.121569, -0.0933726, -0.0656602, -0.0326941, 0.992926, 1, 1, 1, 3.33333, 1, -0.0621889, -0.359792, 0.120882, -0.0929912, -0.0657235, -0.0326774, 0.992958, 1, 1, 1, 3.4, 1, -0.0621321, -0.359903, 0.120194, -0.0926099, -0.0657869, -0.0326606, 0.99299, 1, 1, 1, 3.46667, 1, -0.0620753, -0.360015, 0.119507, -0.0922284, -0.0658502, -0.0326437, 0.993022, 1, 1, 1, 3.53333, 1, -0.0620185, -0.360126, 0.11882, -0.091847, -0.0659135, -0.0326269, 0.993053, 1, 1, 1, 3.6, 1, -0.0619617, -0.360238, 0.118133, -0.0914656, -0.0659769, -0.0326099, 0.993085, 1, 1, 1, 3.66667, 1, -0.0619048, -0.360349, 0.117446, -0.0910842, -0.0660402, -0.032593, 0.993116, 1, 1, 1, 3.8, 1, -0.0617912, -0.360572, 0.116072, -0.0903212, -0.0661668, -0.0325589, 0.993179, 1, 1, 1, 4.3, 1, -0.060451, -0.363406, 0.0995533, -0.0810299, -0.0666905, -0.0322284, 0.993956, 1, 1, 1 )

[node name="SkypeltLand" instance=ExtResource( 1 )]

[node name="Armature001" parent="." index="0"]
transform = Transform( 0.989204, 0.0736731, -0.126679, -0.0521723, 0.984852, 0.165363, 0.136943, -0.156968, 0.978063, -0.059683, -0.363431, 0.0998659 )

[node name="AnimationPlayer" parent="." index="1"]
autoplay = "idle_land_loop"
anims/idle_land_loop = SubResource( 1 )
