[gd_resource type="SpatialMaterial" load_steps=2 format=2]

[ext_resource path="res://assets/textures/arrowUp.png" type="Texture" id=1]

[resource]
flags_transparent = true
flags_unshaded = true
flags_no_depth_test = true
flags_do_not_receive_shadows = true
params_billboard_mode = 2
params_billboard_keep_scale = true
albedo_texture = ExtResource( 1 )
