[gd_scene load_steps=3 format=2]

[ext_resource path="res://entities/fighter/Fighter.tscn" type="PackedScene" id=1]
[ext_resource path="res://entities/fighter/PlayerFighter.gd" type="Script" id=2]

[node name="PlayerFighter" instance=ExtResource( 1 )]
script = ExtResource( 2 )
